{
  "About": {
    "about-fin": "Fin está envolvido com comunidades colaborativas online desde 2007, começando como um administrador da Wikipédia. Elu agora dedica seu tempo livre a pesquisar comunidades extremistas e educando pessoas sobre desinformação online.",
    "about-jezza": "Jezza veio para o projeto da WT em 2019 por causa de frustração com mídias sociais financiadas por publicidade e alimentadas (orientadas) por argumentos. Elu tem trabalhado em várias áreas, incluindo jardinagem e pastoreio de vacas. Jez vive com seu gata e muitas plantas.",
    "about-jimmy": "Jimmy Wales é o fundador da Wikipedia e co-fundador da Fandom. WT.Social é um projeto piloto para tentar construir uma plataforma de rede social mais saudável (Para você e todo o mundo) focada em amplificar vozes de qualidade online",
    "about-orit": "Orit é a fundadora do Glass Voices Co-fundadora da Wikitribune, Ex-CEO da Fundação Jimmy Wales & Ativista de direitos humanos",
    "about-paragraph": "A WTS foi criada com o objetivo de combater a  desinformação na esfera das redes sociais. Somos uma plataforma de comunidades lideradas e moderadas dedicada a criar um espaço onde discussões possam florescer e a desinformação seja rapidamente removida. Para saber mais sobre a filosofia de nossa plataforma, Por favor veja nossos FAQs",
    "about-simon": "Simon foi um desenvolvedor por duas décadas e viu muitas mudanças na indústria. Ele começou a programar quando era jovem fazendo jogos de aventura baseados em texto. Desde que o mundo começou a cair no caos introduzido pelo Brexit e Trump, ele decidiu usar seus poderes para derrotar a desinformação.",
    "fin-title": "Lider de communidade/ Dev. Junior/ Co-Fundadora",
    "jezza-title": "Gestor de comunidade",
    "jimmy-title": "Fundador",
    "orit-title": "Arrecadador de fundos",
    "simon-title": "Dev. lider/ Co-Fundadora"
  },
  "Admin": {
    "admin-stuff": "Coisas da administração",
    "edit-about-page": "Agora você está editando a página sobre",
    "get-user-groups": "Obter Grupos de usuários",
    "joined": "Joined"
  },
  "Annual": "Pagamento anualmente",
  "Archive": {
    "archive": "Arquivar",
    "archive-branch": "Archive Branch",
    "archive-comment": "Archive Comment",
    "archive-post": "Arquivar post",
    "are-you-sure": "Você tem certeza que você gostaria de arquivar esse post?",
    "are-you-sure-branch": "Are you sure you would like to archive this branch?",
    "are-you-sure-comment": "Are you sure you would like to archive this comment?",
    "are-you-sure-post": "Você tem certeza que você gostaria de arquivar esse post?",
    "cancel": "Cancelar",
    "deleted": "[DELETED]"
  },
  "Auth": {
    "account-confirmation-code": "Code",
    "account-confirmation-code-button": "Confirm my account!",
    "account-confirmation-code-errors": "Oops, looks like there were some problems with your code",
    "account-confirmation-code-hint": "Enter the code here including the dashes",
    "account-confirmation-code-placeholder": "eg: ABC-123-ZXY",
    "account-confirmation-intro": "Please enter the code we have sent to your email address. If you don't see it, please check your spam folder.",
    "account-confirmation-title": "Let's just confirm your acount",
    "account-email-verification": "Email de verificação de conta",
    "checking-details": "Checando detalhes...",
    "checking-for-bots": "Procurando por robôs",
    "email-confirmation-required": "Confirmação de email necessária",
    "email-match": "O email e a senha que você usou não coincidem",
    "human-detected": "Humano detectado",
    "make-a-new-account": "Por favor, note que você tem que fazer uma nova conta para acessar este website. Contas WTS 1.0 serão mescladas a essa plataforma em breve.",
    "newsletter": "Sign up to our newsletter (PTBR)",
    "please-check-your-email": "Por favor cheque seu email",
    "please-choose-new-password": "Por favor escolha uma nova senha",
    "please-confirm-email": "Por favor confirme seu endereço de email para usar WT.Social",
    "resend-email": "Reenviar email",
    "start-password-recovery": "Iniciar processo",
    "your-name": "This will be your display name. It does not need to be your real name. For more see our <a href='pt/name-policy'>Name Policy</a> (PTBR)"
  },
  "BeginnersGuide": {
    "how-to": {
      "change-your-settings": {
        "text": "You can update your language, profile, and notification settings in the ‘My Account’ screen at any time. If you would like to help translate the site into your language, let us know in the WTS Features subwiki.",
        "title": "Change Your Settings"
      },
      "invite-your-friends": {
        "text": "THIS ISN’T STARTED YET",
        "title": "Invite Your Friends, Family, and Fans"
      },
      "keeping-track-of-conversations": {
        "text": "THIS ISN’T FINISHED - NEED TO ADD THE ABILITY TO SUBSCRIBE TO A POST\nWhen you make a post, you’ll get a bell notification whenever someone edits it, or leaves a comment. You can also turn on email alerts for updates on the My Account page",
        "title": "Keeping Track of Conversations"
      },
      "share-a-post": {
        "text": "THIS ISN’T STARTED YET",
        "title": "Share a Post"
      },
      "talking-to-another-user": {
        "text": "WTS does not have private messaging, but you can leave someone a message by clicking on their username and creating a new post on their feed.",
        "title": "Talking To Another User"
      },
      "title": "How To",
      "using-hashtags": {
        "text": "THIS ISN’T STARTED AND WE NEED A COMMUNITY DISCUSSION ABOUT IT",
        "title": "Using Hashtags"
      }
    },
    "intro-paragraph": "Welcome to Wikitribune Social (or WTS as we like to call it)! Below is the most comprehensive guide to using our website. If you’ve found a bug, or would like to suggest an improvement - please make a post in the Bugs or WTS Features subwiki.",
    "latest-announcements": "Consulte aqui os últimos avisos da equipe oficial do Trust Café.",
    "more-info": {
      "comprehensive-list-of-subwikis-about-wts": {
        "text": "SAVING UNTIL SUBWIKIS ARE IMPORTED - THEN WE SHOULD COLLABORATE ON THIS",
        "title": "Uma Lista Abrangente de Subwikis Sobre o WT.Social"
      },
      "creating-new-fact-check": {
        "text": "SHOULD DISCUSS",
        "title": "Six Steps to Creating a New Fact Check on WT.Social"
      },
      "difference-between-collaborative": {
        "text": "Posts to WTS are ‘collaborative’ by default. This allows anyone to edit your post. It sounds scary, but it really isn’t! A transparent ‘revision history’ is on the right hand side, which shows what each person wrote.\n\nCommunity members usually reserve editing for minor improvements to posts, or alerting other users when something is wrong. We strongly encourage you to also get stuck in.\n\nNot every post needs to be collaborative. For example, maybe you want to post a personal picture, or your opinion on the latest book/movie. For these posts, you can turn off collaboration. Community and staff administrators will still be able to edit them, but this is mostly reserved for rule-breaking posts.",
        "title": "A diferença entre um post colaborativo e um post individual"
      },
      "title": "Mais informações",
      "who-runs-this-place": {
        "text": "On the day to day level? People like you. For more information about staff, please see the ‘About Us’ page.",
        "title": "Quem gerencia este lugar?"
      }
    },
    "sections": [
      {
        "items": [
          {
            "text": "Although you can see some similarities in our design, the social aspect of Trust Café is a lot different than what you might be used to. The website is dedicated to sharing trustworthy content and creating substantive discussions. You won’t see a lot of minion memes or other low quality content here.<br/><br/>We also operate on a peer-to-peer moderation system. That means you are empowered to make this a great place for all. If you see spam, misinformation, or hate speech, let people know by using the trust rating system.<br/><br/>Staff can and will step in if necessary, but the community (including community administrators) are the heart of the website.",
            "title": "What makes Trust Café different from Facebook and Twitter?"
          },
          {
            "text": "A good quality Trust Café post should have accurate and up-to-date information, provide sources for any claims made, and be written in a clear, concise, and easy-to-understand manner. Additionally, the post should be respectful of other viewpoints and should not contain any offensive language or content.",
            "title": "What makes a ‘quality post’?"
          },
          {
            "text": "The trust system is a great way for users to rate other users as trustworthy when they post good quality content. It helps create an environment of accountability and encourages people to be more mindful about the content that they are posting. Additionally, it can also help identify untrustworthy people who may be intentionally posting spam or inappropriate material.",
            "title": "Which users are trustworthy?"
          },
          {
            "text": "You can edit your own posts on Trust Café, like on any social media website. Unlike other platforms, users can edit each other’s posts to correct mistakes, reword headlines, and flag misinformation. In this way Trust Café is like a wiki: everyone can help curate quality content.",
            "title": "Editing A Post"
          },
          {
            "text": "If you see a comment that shouldn’t be there, such as hate speech or advertisements, you can hide the post from view for yourself and everyone else. This is one of the ways the community helps keep Trust Café tidy. If a comment is hidden by mistake, it can be unhidden just as easily.<br/><br/>When a user hides or unhides a comment, the change is logged in the Recent Changes list so that everyone can see. In addition to encouraging action on bad actors with hidden comments, this transparency measure also prevents clandestine abuse of the system.",
            "title": "Hiding Comments",
            "under_construction": true
          }
        ],
        "title": "INTRODUCTION"
      },
      {
        "items": [
          {
            "text": "You’ll notice that your home feed has two tabs: ‘Your Feed’ shows you every post from people or subwikis you are following, and ‘For You’ shows you all the latest posts, although as the trust network develops, new accounts and potential spammers will be displayed below trusted community members.",
            "title": "About Your Feed"
          },
          {
            "text": "A ‘space’ is a place to post content about a given topic, like subreddits or Wikipedia Projects. Trust Café has spaces for everything from US Politics to Puzzles from Around The World.<br/><br/><a href='subwikis/alphabetical'>You can browse all Trust Café spaces here.</a>",
            "title": "About Spaces"
          },
          {
            "text": "Trust Café believes in being as transparent as possible. If you click on <a href='recentchanges'>‘Recent Changes’</a> you can see every action taken on the website. This helps keep everyone accountable and is a great way to look into how moderation works on the platform.",
            "title": "About Recent Changes"
          },
          {
            "text": "On the day-to-day level? People like you!<br/><br/>For information about our staff team, please see <a href='About'>the ‘About Us’ page.</a>",
            "title": "Who Runs This Place?"
          }
        ],
        "title": "ABOUT"
      },
      {
        "items": [
          {
            "text": "You can update your language, notification settings, and other account details in <a href='myaccount'>the ‘My Account’ page</a> at any time. If you would like to help translate the site into your language, let us know in <a href='https://discord.gg/ftyB5yzwH5'>the official Trust Café Discord server</a>.",
            "title": "Altere as suas configurações"
          },
          {
            "text": "O Trust Café não tem mensagens privadas, mas pode deixar uma mensagem a alguém clicando no seu nome de utilizador e postando uma nova mensagem no seu feed.",
            "title": "Falar com outro usuário"
          },
          {
            "text": "EM CONSTRUÇÃO",
            "title": "Convide os seus amigos, família e seguidores",
            "under_construction": true
          },
          {
            "text": "This should explain both on-platform and off-platform sharing since both are important to growth......... To share a Trust Café post to your followers on other social media sites, use the share button [add image below] to share directly to Facebook or Twitter, or copy the link and paste it into an email or other message.",
            "title": "Partilhar um post",
            "under_construction": true
          },
          {
            "text": "THIS ISN’T FINISHED - NEED TO ADD THE ABILITY TO SUBSCRIBE TO A POST........When you make a post, you’ll get a bell notification whenever someone edits it, or leaves a comment. You can also turn on email alerts for updates on <a href='myaccount'>the ‘My Account’ page</a>.",
            "title": "Manter um registo das conversas",
            "under_construction": true
          },
          {
            "text": "THIS ISN’T STARTED AND WE NEED A COMMUNITY DISCUSSION ABOUT IT",
            "title": "Utilização de Hashtags",
            "under_construction": true
          }
        ],
        "title": "HOW TO"
      },
      {
        "items": [
          {
            "text": "Posts to Trust Café are collaborative, which allows anyone to edit your post. It sounds scary, but it really isn’t! A transparent ‘revision history’ is on the right hand side, which shows what each person wrote and when they wrote it.<br/><br/>Community members usually reserve editing for minor improvements to posts, or alerting other users when something is wrong. We strongly encourage you to follow these practices.",
            "title": "Collaborative Editing"
          },
          {
            "text": "SAVING UNTIL SUBWIKIS ARE IMPORTED - THEN WE SHOULD COLLABORATE ON THIS. This section will need different links for different languages since the spaces are separate.",
            "title": "Spaces About Trust Café",
            "under_construction": true
          },
          {
            "text": "EM CONSTRUÇÃO: add links to Self Promotion Policy, NSFW Policy, Names and Pseudonyms Policy",
            "title": "Termos de Serviço",
            "under_construction": true
          }
        ],
        "title": "Mais informações"
      }
    ],
    "terms-of-service": {
      "names-and-pseudonyms": "Nomes e Pseudônimos",
      "nsfw-policy": "Política de NSFW",
      "self-promotion-policy": "Política de Auto-Promoção",
      "title": "TERMOS DE SERVIÇO"
    },
    "the-basics": {
      "different-from-facebook": {
        "text": "Although you can see some similarities in our design, the social aspect of WTS is a lot different than what you might be used to. The website is mostly dedicated to sharing news and creating substantive discussions. You won’t see a lot of minion memes or other low quality content here.\n\nWe also operate on a peer-to-peer moderation system. That means you are empowered to make this a great place for all. If you see a comment you don’t like, hide it! If you see spam, misinformation, or hate speech, let people know.\n\n Staff can and will step in if necessary, but the community (including community administrators) are the heart of the website.",
        "title": "What makes WTS different from Facebook?"
      },
      "editing-a-post": {
        "imgcaption": "O Botão de Editar",
        "subitem": "What’s a collaborative post?",
        "text": "Yes, you can edit collaborative posts! By clicking on the edit icon, you can collaborate with other users on fact checks, fix headlines, or help fight against spam, misinformation, and hate speech. If you want to try it out, give this post an update.",
        "title": "Editing A Post"
      },
      "hiding-comments": {
        "text": "EM CONSTRUÇÃO",
        "title": "Comentários ocultos"
      },
      "quality-post": {
        "text": "On WTS, not every post has to be 'quality'. It's great to get people's holiday snaps and jokes. But in the interest of generating meaningful discourse, try to post non-inflammatory articles from trustworthy sources.\n\nIf you do find something interesting outside of that scope that you think needs debunking, add it with the hashtag #factcheck to let people know.",
        "title": "What makes a ‘quality post’?"
      },
      "title": "Os Fundamentos"
    },
    "title": "Um Guia para Iniciantes de Trust Café",
    "using-the-website": {
      "about-recent-changes": {
        "text": "RECENT CHANGES ISN’T FINISHED SO MORE TO ADD\nWTS believes in being as transparent as possible. If you click on ‘Recent Changes’ you can see every action taken on the website. This helps keep everyone accountable and is a great way to look into how moderation works on the platform.",
        "title": "Sobre mudanças recentes"
      },
      "about-subwikis": {
        "text": "A subwiki is a place to post content about a given topic, like subreddits or Wikipedia Projects. WT.Social has subwikis on everything from US Politics to Puzzles from Around The World.\n\nYou can browse subwikis by going to THIS IS NOT STARTED YET.",
        "title": "Sobre Ramificações"
      },
      "about-your-feed": {
        "text": "You’ll notice that your feed has two tabs. ‘My Feed’ shows you every post from people or subwikis you are following.\n\nDiscover shows you all the latest posts, although new accounts and potential spammers will be displayed below trusted community members.",
        "title": "Sobre a seu Feed"
      },
      "title": "Utilização do site"
    },
    "visual-guide": "Visual learner? Check out the Visual Guide to WTS here."
  },
  "Block": {
    "alert-text-blocking-admin-not-allowed": "Blocking an admin is prevented to avoid abuse of the blocking system. If you have a problem with an admin, please contact us.",
    "alert-title-blocking-admin-not-allowed": "Sorry, we can't let you do that",
    "btn-block-this-user": "Block this user",
    "btn-show-anyway": "Show me anyway",
    "btn-unblock": "Unblock",
    "btn-unblock-this-user": "Unblock this user",
    "click-manage-blocks": "Click here to manage your blocks",
    "heading-reason": "Your reason for blocking this user",
    "no-blocked-users": "You have not blocked any users",
    "reason-textarea-label": "Enter your reason for blocking this user (optional)",
    "resaon-explainer": "Blocking this user will hide their content from you.  You can enter an optional reason which will remain a private to you and our staff.",
    "this-has-been-blocked-by": "You’re unable to view this because this person limits who can view their content.",
    "this-user-has-blocked-you": "This user has blocked you",
    "title-manage-blocks": "Review or unblock users you have blocked",
    "unblock-explainer": "You are about to unblock this user",
    "you-have-blocked-this-content": "This has been blocked by you"
  },
  "Branch": {
    "summarise-branch": "Summarise this branch",
    "describe-branch": "Describe this branch",
    "member": "no members | one member | {n} members",
    "post": "no posts | one post | {n} posts",
    "updated": "Atualizou",
    "icon": "Branch Icon",
    "this-branch-already-exists": "This branch already exists"
  },
  "Contact": {
    "contact-us": "Fale conosco",
    "contact-us-paragraph": "Formulario de contato",
    "discord": "Você também pode Conversar conosco no discord",
    "email": "Seu endereço de email",
    "message": "Mensagem",
    "name": "Nome",
    "send": "Enviar",
    "subject": "Assunto",
    "success": "Obrigado por nos contatar"
  },
  "Cookies": {
    "content": {
      "paaragraph7": "In the event that this website contains links to other websites we are not responsible for the privacy policies or other practices of the operators of any such websites.",
      "paragraph1": "The cookie settings on this website are set to “allow cookies” to give you the best browsing experience possible. If you continue to use this website without changing your cookie settings or you click “Accept” below then you are consenting to this. We are committed to preserving the privacy of all visitors to this website. Please read the following privacy policy statement to understand how we collect and use personal data on this website:",
      "paragraph10": "Any content or commentary published on this website or on any of our social media platforms is for information purposes only and does not constitute specific legal advice. The information contained in this website is a non-exhaustive overview of a number of legal issues and specific legal advice should be sought should you require personal or business advice on a client-professional services relationship basis.",
      "paragraph11": "Please note that Trust Café omits all liability for the content of any third party website that is linked to its website.",
      "paragraph2": "We collect personal information which you voluntarily submit to us, for example when you complete our Contact form.",
      "paragraph3": "We will only use the information which we collect about you lawfully and in a fair manner in accordance with the Data Protection Act 1998.",
      "paragraph4": "We may also collect information about your usage of the website using cookies. If you do not want to receive cookies, you may reject them by using your browser settings.",
      "paragraph5": "Any information we collect about you will be used solely for internal marketing purposes and to improve this website. We do not sell or otherwise disclose your personal information to third parties, unless required to do so by law or court order or to enable third parties to provide certain services to us. In such event we will at all times control and be responsible for any such use of your personal information. We will keep your data securely to prevent unauthorised access by third parties.",
      "paragraph6": "We may use your personal information to provide you with newsletters and other information about our firm and services. Such newsletters or other information will contain clear instructions about how to unsubscribe should you decide that you no longer want to receive them.",
      "paragraph8": "Should WIKITRIBUNE LTD (hereafter refered to as Trust Café) merge with another business entity, your information may be disclosed to and used by our new business partners or owners.",
      "paragraph9": "We may change this statement at any time by posting revisions on this website"
    },
    "member": "no members | one member | {n} members",
    "post": "no posts | one post | {n} posts",
    "title": "Cookie Policy"
  },
  "EditBox": {
    "identifier": "identificador",
    "uploading-your-image": "Uploading your image...."
  },
  "Errors": {
    "email-confirmation-error": "There was an error confirming your address",
    "no-identifier": "Sem identificador!",
    "no-settings": "Sem configurações!"
  },
  "FAQS": {
    "is-translated": "",
    "questions": [
      {
        "answer": "Não. A missão do WT.Social é fornecer uma plataforma de comunicação social não tóxica, o que não pode acontecer num ambiente em que nada acontece. Tomamos uma posição proativa contra o discurso do ódio, o assédio e a desinformação.",
        "title": "O Trust Café é uma 'Plataforma de Discurso Livre'?"
      },
      {
        "answer": "No. Our guidelines are politically agnostic. The political leanings of users are not a consideration when making moderation decisions. What we want to encourage is <strong>reasoned-discourse</strong> among people who may have many disagreements.  Any community member who can refrain from hate speech, harassment, and misinformation is welcome. Having said that, it should (but unfortunately does not) go without saying that Nazis and other genocidally-inclined folks are not welcome here.",
        "title": "O WT.Social é uma plataforma de esquerda/direita?"
      },
      {
        "answer": "Exactly what it sounds like. Although staff members can and will step in to remove users violating our guidelines, and to shield users from the worst excesses of the internet, the everyday moderation of the platform can and should be handled by our users.<br/><br/>Why? Because top-down moderation (or worse, AI-driven moderation) does not work. Facebook moderation has created an entire <a href='https://www.irishtimes.com/business/technology/life-as-a-facebook-moderator-people-are-awful-this-is-what-my-job-has-taught-me-1.4184711'>class of employees with PTSD</a> with the inability to act when they see patently harmful content.<br/><br/>Algorithmic moderation often creates policies which reinforce existing social biases and can <a href='https://www.washingtonpost.com/technology/2021/11/21/facebook-algorithm-biased-race/'>promote racism</a>. Social media companies reliant solely on ad-driven revenue <a href='https://www.forbes.com/sites/petersuciu/2021/08/02/spotting-misinformation-on-social-media-is-increasingly-challenging'>allow misinformation to spread</a> for the sake of engagement and clicks. And it's not scalable. AI <a href='https://www.digitalinformationworld.com/2021/02/ai-content-moderation-systems-are.html'>cannot currently keep up</a> with the ever-changing nature of human behavior, and even tech giants cannot afford to hire enough human moderators to police their platforms.<br/><br/>WT.Social allows users to edit posts, and hide comments. They can directly combat spam, request and start collaborative fact checks, and otherwise shape the platform into what they want it to be. It's a radical idea, but we firmly believe it's the future.",
        "title": "O que é a Moderação de Ponto-a-ponto?"
      },
      {
        "answer": "We provide a link on sign-up allowing you to invite people to follow you on WT.Social. The url is <code>https://wt.social/YOUR-USERNAME-HERE/followme</code>",
        "title": "Como posso levar os meus seguidores a confiar no Trust Café?"
      },
      {
        "answer": "Usuários como você. Nós não recebemos dinheiro de VC (Venture Capital), nem permitimos anunciantes em nossa plataforma. Contamos com a generosidade da nossa comunidade para manter as luzes acesas. Se quiser ajudar, considere fazer uma contribuição <a href='https://contribute.wt.social/'>aqui</a>.",
        "title": "Quem financia o Trust Café?"
      },
      {
        "answer": "Você com certeza pode! Desde que siga as nossas orientações de autopromoção, conforme estabelecido em  <a href='https://wt.social/self-promotion'>aqui</a>.",
        "title": "Posso promover o meu Blog/Podcast/Negócio aqui?"
      },
      {
        "answer": "WT.Social began as an attempt to create user-driven news content. To that end, we named ourselves WikiTribune (as in <a href='https://dictionary.cambridge.org/dictionary/english/tribune'>newspaper</a>, not the Roman forum). Although there was interest in the idea, there were too many barriers to make a flourishing platform. In light of this, we pivoted to creating value in the social media space. WikiTribune was shortened to WT.",
        "title": "Por que é chamado de Trust Café?"
      },
      {
        "answer": "Not at the present time, as we haven't seen any persuasive use case for the blockchain for our actual needs.  We are open to financial support in pretty much any currency, including cryptocurrency, though!",
        "title": "Are You Open To Being On The Blockchain?"
      }
    ]
  },
  "Following": {
    "following-nobody": "Você não está seguindo ninguém",
    "users-following": "Pessoas que você segue"
  },
  "General": {
    "404": "Essa página provavelmente foi assimilada por algum Borg sacana e não está mais 'aqui'",
    "FAQS": "FAQS",
    "about": "Sobre",
    "about-header": "Bem-vindo ao Trust Café",
    "about-paragraph": "Eu posso estar ouvindo uma certa trilha sonora agora...\n\nQuem sabe! ?",
    "advanced": "Avançado",
    "all": "Todos",
    "all-branches": "Todos os ramos",
    "all-posts": "Todos os posts",
    "are-you-sure-delete-key-pair": "Você tem certeza de que quer excluir este par de chaves?",
    "back": "Voltar",
    "branch-for-new-post": "Ramo para novo post",
    "branch": "Ramo",
    "branches": "Ramos",
    "by-signing-up-you-agree": "Ao se inscrever, você concorda com nossos {TermsLink} e {PrivacyLink}",
    "cancel": "Cancelar",
    "cant-log-in-right-now": "Desculpe, não podemos fazer login agora",
    "change": "Mudar",
    "changes": "Mudanças",
    "choose-scopes": "Escolha quais escopos você deseja conceder ao seu cliente",
    "choose-your-language": "Escolha seu idioma",
    "close": "Fechar",
    "comment": "Comentar",
    "comment-fetch-error": "Ops! Nada para buscar nos comentários!",
    "comment-n": "0 comentários | 1 comentário | {n} comentários",
    "comment-placeholder": "Deixe um comentário",
    "comment-text": "Texto do comentário",
    "commented-on-a-post": "Comentou em um post",
    "commented-on-a": "Comentou em um",    
    "comments-show-all": "Show all comments",
    "confirm-password": "Confirmar senha",
    "contact": "Fale conosco",
    "continue-reading": "Continuar lendo",
    "copy-link": "Copiar link",
    "create": "Criar",
    "create-a-branch": "Criar um ramo",
    "create-new-client-credentials-key-pair": "Criar novo par de chaves de credenciais do cliente",
    "created-a": " criou um(a) ",
    "create-account": "Create Account",
    "created-new-branch": "criou um novo ramo",
    "created-new-comment": "fez um novo comentário",
    "created-new-post": "criou um novo post",
    "created-new-userprofile": "criou um novo perfil de usuário",
    "created-new-vote": "criou um novo voto",
    "dark-mode": "Modo noturno",
    "date-of-birth": "Data de nascimento",
    "describe-your-new-branch": "Descreva seu novo ramo",
    "discover": "Descobrir",
    "downvote": "Voto negativo",
    "edit": "Editar",
    "edit-attached-link": "Editar link anexado",
    "edit-copy": "Editar cópia",
    "edit-this-post": "Editar este post",
    "editing": "Editando",
    "email-address": "Endereço de e-mail",
    "error-loading-link": "Ocorreu um erro ao carregar este link",
    "explore": "Explorar",
    "first-name": "Primeiro nome",
    "follow": "seguir",
    "followed-you": "seguiu você",
    "following": "Seguindo",
    "for-you": "Para você",
    "forgot-password": "Esqueceu a senha",
    "forgotten-password": "Senha esquecida",
    "guest": "Convidado",
    "home": "Início",
    "i-agree": "Eu concordo com ambos",
    "information": "Informação",
    "is-collaborative": "post colaborativo",
    "item-cannot-be-followed": "Este Item não pode ser seguido",
    "last-name": "Último nome",
    "load-more": "Carregar mais",
    "load-new": "Load new posts",
    "loading-full-data": "Carregando dados completos do link",
    "loading-user": "Carregando usuário",
    "login": "Logar",
    "login-or-register": "Logar ou registrar",
    "logout": "Deslogar",
    "main-menu": "Menu principal",
    "make-new-branch": "Criar novo ramo",
    "manage-api-access": "Gerenciar acesso à API",
    "many-comments": "muitos comentários",
    "monthly": "Mensal",
    "more": "Mais",
    "more-info": "Mais informações",
    "must-be-13-years-old": "Você deve ter pelo menos 13 anos para usar o Trust Café",
    "must-be-online-to-continue": "Você deve estar online para continuar",
    "my-account": "Minha conta",
    "my-payments": "Meus pagamentos",
    "new-branch-name": "Nome do novo ramo?",
    "new-post-button": "Criar novo post",
    "next": "Próximo",
    "next-month": "Próximo mês",
    "no-user": "Sem usuário",
    "none": "Nenhum",
    "not-collaborative": "post pessoal",
    "on": "em",
    "one-comment": "comentário",
    "one-moment": "Um momento, por favor",
    "one-off": "Único",
    "one-or-more-fields-are-invalid": "Um ou mais campos estão inválidos",
    "oops-looks-like-youve-entered-the-wrong-login": "Ops! Parece que você digitou o login errado",
    "pages": "Páginas",
    "password": "Senha",
    "password-input-must-match": "As senhas digitadas devem coincidir",
    "password-recovery": "Recuperação de senha",
    "pay-with-debit/credit-card": "Pagar usando cartão de débito/crédito",
    "pay-with-paypal": "Pagar usando Paypal",
    "please-enjoy-your-stay": "Por favor aproveite sua estadia",
    "post-placeholder": "No que você está pensando?",
    "post-text": "Texto do post",
    "posted-in": "postado em",
    "posted-in-their-branch": "postado em seu ramo",
    "posted-in-their-branch-at": "postado em seu ramo às",
    "posted-to": "postado em",
    "posted-to-user-profile-slot-1": "postado no perfil de ",
    "posted-to-user-profile-slot-2": "",
    "post": "post",
    "posts": "Posts",
    "posts-by-id": "Posts pelo ID",
    "previous-month": "Mês anterior",
    "privacy-policy": "Política de Privacidade",
    "profile": "perfil",
    "profile-url": "URL do perfil",
    "random-box": "Caixa aleatória",
    "read-all-posts": "Você já leu todos os posts aqui!",
    "recent-changes": "Mudanças recentes",
    "recommended-branches": "Ramos recomendados",
    "refresh": "Atualizar",
    "register": "Registrar",
    "remove": "Remover",
    "replied": "respondeu",
    "replied-at": "respondeu em",
    "reply": "Responder",
    "required": "Necessário",
    "removed-posts": "Posts removidos",
    "restart": "Reiniciar",
    "retry": "Retornar",
    "revisions": "Revisões",
    "save": "Salvar",    
    "show-less": "Show less",
    "settings": "Configurações",
    "subscribe": "Inscreva-se",
    "take-note": "Anote os seguintes detalhes. Se você os perder, precisará criar um novo client secret.",
    "tell-other-community-members-a-little-bit-about-you": "Conte um pouco sobre você para outros membros da comunidade.",
    "terms-and-conditions": "Termos e condições",
    "testing": "Estou testando",
    "there-are-new-posts": "There are new posts to show",
    "there-are-no-changes-to-show": "Não há mudanças para mostrar",
    "there-arent-any-followers-followed-by-users": "Não há usuários seguidos por este usuário",
    "there-arent-any-followers-following-subwikis": "Não há ramos seguidos por este usuário",
    "there-arent-any-followers-following-users": "Não há usuários seguindo este usuário",
    "there-arent-any-posts-here": "Não há nenhum post aqui",
    "there-is-a-problem-with-your-account": "Há um problema com sua conta",
    "there-was-an-error": "Ocorreu um erro",
    "this-comment-has-been-archived": "Este comentário foi arquivado",
    "trust": "Confiança",
    "unfollow": "Deixar de seguir",
    "updated-a-branch": "atualizou um ramo",
    "updated-a-comment": "atualizou um comentário",
    "updated-a-post": "atualizou um post",
    "updated-a-userprofile": "atualizou um perfil de usuário",
    "updated-your": "atualizou seu",
    "upvote": "Voto positivo",
    "url-is-available": "Esta URL está disponível",
    "url-is-invalid": "This URL is invalid",
    "url-is-taken": "Esta URL já está em uso",
    "user-profile": "Perfil do usuário",
    "users": "Usuários",
    "visit-branch": "Visitar ramo",
    "welcome": "Bem-vindo",
    "welcome-to-trust-cafe": "Bem-vindo ao Trust Café",
    "yearly": "Anualmente",
    "you-are-currently-browsing-as-a-guest": "Você está navegando como convidado. Faça login ou registre-se para postar e comentar.",
    "you-have-been-disconnected": "Você foi desconectado da internet",
    "you-have-max-clients": "Você tem o número máximo de clientes",
    "you-have-no-api-clients": "Você não tem clients API",
    "you-need-to-be-online": "Você precisa estar online para usar o Trust Café",
    "your-client-ids": "Os seus Client ID",
    "your-conection-has-been-restored": "A sua ligação foi restabelecida",
    "your-email-is-not-verified-notice": "Seu e-mail não está verificado, então alguns recursos estão desativados. Por favor, verifique seu e-mail para encontrar um link de verificação.",
    "your-feed": "Seu feed",
    "your-language": "Seu idioma",
    "your-new-creds": "Suas novas credenciais de API"
  },
  "Monthly": "Pagamento mensalmente",
  "Mute": {
    "btn-mute-this-user": "Mute this user",
    "btn-unmute-this-user": "Unmute this user",
    "no-muted-users": "You have not muted any users",
    "title-manage-mutes": "Review or unmute users you have muted"
  },
  "MyBranches": {
    "browse-branches": "Browse Branches",
    "my-branches": "My Branches",
    "not-following-branches": "You are not currently following any branches."
  },
  "MySubwikis": {
    "browse-subwikis": "Procurar Ramificações",
    "my-subwikis": "Minhas ramificações",
    "not-following-subwikis": "No momento, você não está seguindo nenhuma ramificações."
  },
  "NamePolicy": {
    "details": [
      {
        "paragraph": "There is a proven benefit to users having an assigned identity on social networks. They help foster a kinder and more cooperative environment. That is at the core of our naming policy. We are not interested in your government name unless you choose to verify yourself.",
        "title": "Trust Café Requires <i>a</i> First and Last Name, it Does Not Have to be <i>Your</i> Name.</b>"
      },
      {
        "paragraph": "Example: \"Z\" is a perfectly valid first name, \"MyCatCanHaveALittleSalami\" is not.",
        "title": "Please Choose a Name Within the Realms of Possibility"
      },
      {
        "paragraph": "Jean-Luc Picard, Daffy Duck, Donald Trump - admittedly they are all pseudonyms with a first and last name, but completely against the spirit of the project. Depending on the name, you may be asked to changed it, or banned.",
        "title": "Use Common Sense"
      },
      {
        "paragraph": "We currently don't have any way of being able to tell that an account is \"officially\" from a company and as such you may be asked to change any name purporting to be the official account of any famous people or companies.<br/><br/>We are hoping to have verification for both companies and individuals soon but for now, this is a grey area. If you have further questions about this please email us at info{@}trustcafe[dot]io.",
        "title": "Company or \"Official\" Names"
      }
    ],
    "introduction": "As ever, this is a working policy and not carved in stone. Please feel free to <a href='en/wt/trustcafe-feedback'>open a discussion</a> about how you think this could be improved.<br/><br/>Trust Café has a less prescriptive policy set than many other social media platforms. This is not because we are less committed to providing a safe and enjoyable environment for our users, but because our moderation is community-driven, and we trust their ability to discuss and adjudicate edge-cases. With that said...",
    "title": "Names and Pseudonyms on Trust Café",
    "tldr": "<b>TL;DR Trust Café requires <i>a</i> name, it does not have to be <i>your</i> name.</b>"
  },
  "Newsletter": {
    "error-unsubscribe": "There was an error unsubscribing from our newsletter",
    "subscribe": "Sign up to our newsletter",
    "unsubscribed": "You have been unsubscribed from our newsletter",
    "unsubscribing": "Unsubscribing from newsletter",
    "subscribing": "Confirming your newsletter subscription",
    "subscribed": "You are now subscribed to our newsletter. See you on Friday!",
    "error-subscribe": "There was an error with your newsletter subscription"
  },
  "Notifications": {
    "action_article_updated": "updated your post",
    "action_comment_reply": "replied to you",
    "action_profile_post": "posted on your profile",
    "action_rank_up": "You were promoted",
    "action_trust_created": "rated you",
    "article-updates": "Atualizações de um artigo",    
    "mark_all_as_read": "Mark all as read",
    "new-comment": "Novo comentário",
    "new-comment-responding-to something-I-have-done": "Novo comentario respondendo alguma coisa que eu tenha feito",
    "new-followers": "Novos seguidores",
    "new-message-to-me-on-my-profile": "Nova mensagem para mim em meu perfil",
    "new-messages": "Novas mensagens",
    "notification-preferences": "Notification Preferences",
    "notifications": "Notifications",
    "preferences": "Preferencias de Email",
    "rank-down": "Rank Down",
    "rank-up": "Rank Up",
    "someone-trusts-me": "When someone new trusts me",
    "someone-trusts-me-more": "When someone increases their trust rating of me",
    "trust-created": "New trust",
    "trust-increased": "Trust Increased",
    "update-to-an-article-I-have-created-or-edited": "Atualizarem um artigo que eu tenha criado ou editado",
    "when-a-user-follows-me": "Quando um usuário me seguir",
    "when-my-rank-decreases": "When I am demoted a rank",
    "when-my-rank-increases": "When I am promoted a rank",
    "when-someone-posts-to-me-directly": "When someone posts to me directly",
    "when-something-i-have-posted-or-edited-is-edited": "When something I have posted or edited is edited further"
  },
  "Password": {
    "change-password": "alterar senha",
    "forgotten-password": "Senha esquecida",
    "login-now": "Logar agora",
    "minimum-characters": "minimo de 8 caracteres",
    "password-recovery": "Recuperar senha",
    "password-reset-sentence-part-1": "Por favor certifique-se de seguir o link completo em seu email, se você continuar a ter problemas por favor",
    "password-reset-sentence-part-2": "ou tente",
    "password-reset-sentence-part-3": "redefinir sua senha novamente",
    "show-password": "Show password",
    "there-was-a-problem-validating-the-reset-token": "Ocorreu um problema ao validar o token de redefinição",
    "your-password-could-not-be-changed-at-this-time": "Sua senha não pode ser alterada neste momento",
    "your-password-has-been-changed": "Sua senha foi alterada",
    "current-password": "Current password",
    "new-password": "New password",
    "update-password": "Update password"
  },
  "Patronage": {
    "become-a-patron": "Become a Patron",
    "box-header-big-hugs": "Big Hugs Yearly Bronze",
    "box-header-free": "Citizen - Free",
    "box-header-monthly": "Bronze - Monthly",
    "box-header-yearly": "Bronze - Yearly",
    "finding-currency-data": "Finding currency and customer data",
    "header": "Choose your membership plan",
    "intro": "No ads.  At TrustCafé.io, our community thrives on mutual trust, not advertisements. Choose your patronage level and be a part of a community where genuine connections propel you forward.",
    "membership-page-payment-complete": "Payment Complete",
    "next-payment-expected": "Next payment expected",
    "page-title": "Your Trust Café Patronage",
    "patronage": "Patronage",
    "point-all-bronze": "All the benefits of Bronze",
    "point-badge": "Profile badge",
    "point-discount": "Significant discount",
    "point-earn-bronze": "Earn bronze through community trust",
    "point-free": "Get started for free",
    "point-immediate": "Your trust votes start to count immediately",
    "point-more-help": "Help us even more to build a healthier Internet",
    "term": "Term",
    "thank-you": "Thank you for your contribution.",
    "your-current-membership": "Your current membership",
    "my-patronage": "My Patronage",
    "cancel-membership": "Cancel membership",
    "cancel-membership-confirmation": "Cancel membership confirmation",
    "are-you-sure-you-want-to-cancel-membership": "Are you sure you want to cancel your membership?",
    "do-not-cancel": "Do not cancel",
    "confirm-cancelleation": "Confirm cancellation",
    "your-membership-has-been-cancelled": "Your membership has been cancelled"
  },
  "Pay with Paypal": "Pagamento com Paypal",
  "Pay with debit/credit card": "Pagar com cartão de débito/crédito",
  "PayPal": {
    "new-paypal-contribution": "Nova contribuição com o PayPal",
    "paypal-thank-you": "Muito obrigado!"
  },
  "Payment": {
    "click-here": "clique aqui",
    "contributions": "Contribuições",
    "currency": "Moeda",
    "error-fetching-schedules": "Ocorreu um erro ao buscar por seus pagamentos agendados",
    "fetching-schedules": "Buscando por pagamentos agendados",
    "go-back-to-wt-social": "Voltar para WT.social",
    "hint-receipt": "Isto é somente para o recibo",
    "if-you-would-like-to-make-an-account": "Você gostaria de fazer uma conta",
    "payment-amount": "Quantia",
    "payment-are-you-sure": "Você tem certeza que quer cancelar essa inscrição?",
    "payment-cancel-confirm": "Realmente cancelar?",
    "payment-cancelled": "Cancelado",
    "payment-cancelling": "Cancelando",
    "payment-continue": "Continuar",
    "payment-contributions": "Contribuições",
    "payment-created": "Criado",
    "payment-custom": "Outra",
    "payment-custom-amount": "Outra quantia",
    "payment-form-choose-your-plan": "Escolha seu plano",
    "payment-form-new-contribution": "Nova contribuição financeira",
    "payment-form-next-payment": "Próximo: Pagamento",
    "payment-form-payment": "Pagamento",
    "payment-form-thank-you": "Obrigado pela sua contribuição.",
    "payment-provider": "Fornecedor",
    "payment-status": "Status",
    "payment-subscription": "Inscrições",
    "payment-subscriptions": "Inscrições",
    "payment-term": "Termo",
    "support": "Support Trust Café (PTBR)",
    "user-amount-currency": "Quantia/Moeda",
    "user-fetch-payment-error": "Ocorreu um erro ocorrendo com seu pagamento.",
    "user-payment-provider": "sistema de pagamento",
    "your-contribution-wont-go-to-waste": "Sua contribuições não serão desperdiçadas!",
    "your-email-address": "Seu endereço de e-mail"
  },
  "Post": {
    "a-branch": "A Branch",
    "a-subwiki": "Em uma Subwiki",
    "branch-search": "Start typing to search",
    "collaborative": "Make this post collaborative",
    "do-you-want-other-users-to-be-able-to-edit-this-post": "Do you want other users to be able to edit this post?",
    "leave-a-message-for": "Leave a Message ",
    "my-profile": "No meu perfil",
    "post": "Post",
    "post-actions": "Post Actions",
    "read-this-post": "Read this post",
    "sharing-options": "Sharing options",
    "subwiki-search": "Comece digitando para pesquisar",
    "to-branch": "Post to Branch",
    "to-subwiki": "Postar na subwiki",
    "where": "Onde você gostaria de postar?"
  },
  "PostRestrictions": {
    "text": "On Trust Café, users can block other users. When you see that content has been restricted from view, it might be due to another user blocking you from viewing their profile and associated posts and comments.",
    "title": "About Post Restrictions"
  },
  "PrivacyPolicy": {
    "details": [
      {
        "paragraph": "<ul><li>Email Address</li><li>Password</li><li>First name</li><li>Last name</li></ul>",
        "title": "Information collected as part of Signing up and using the site"
      },
      {
        "paragraph": "<ul><li>Bio</li><li>Photo</li></ul><br/><br/>For profile information you have the ability to edit or delete it at any time.",
        "title": "If you choose to fill out your profile, we also ask for this information:"
      },
      {
        "paragraph": "As a matter of general policy the data collected as a part of paying to support WT.Social (hereafter referred to as Trust Café) is held by our third-party payment processors.  We will download this data or parts of this data from time to time as needed to contact people for legitimate business purposes relating to the transactions or membership of the website.<br/><br/><b>At PayPal</b><br/><ul><li>Name</li><li>Email Address</li><li>Home address (in some cases)</li></ul><br/><br/><b>At Stripe</b><br/><ul><li>Name</li><li>Email Address</li><li>Last 4 digits of credit card number</li><li>Expiration date of credit card</li><li>Credit card type (Visa / MC / etc.)</li></ul>",
        "title": "Information collected as part of Paying"
      },
      {
        "paragraph": "We use Amazon Web Services including AWS S3 (file uploads and database backups), AWS RDS (databases), and AWS Elasticache (a Redis instance) as well as our primary web servers on Amazon EC2.  We also use AWS SES for sending emails from the site.<br/><br/>Our Trust Café email service is with Google G-Suite.  Obviously, any personal data that you email to us (such as a CV) will end up there and potentially saved by us indefinitely.<br/><br/>Similarly, we use Zendesk for our customer service emails, and any personal data you email to various official addresses will end up there and potentially saved by us indefinitely.<br/><br/>We frequently use Google Docs for internal and external document sharing<br/><br/><b>Among the outside services that we use that we think have no personally identifiable information include</b><br/><br/>Gitlab (our code)<br/>Cloudflare (firewall and caching layer with outside world)<br/><br/>I have a keen interest in reducing our reliance on all outside tools so that we have better long term control of our data and the privacy of our users.  In some cases there should be open-source and self-hosted alternatives that will be reasonable replacements for these industry-standard tools.",
        "title": "Information that we share with others"
      },
      {
        "paragraph": "Under GDPR, individuals have a non-absolute right to erasure under certain limited circumstances.  As we do not rely upon consent as our lawful basis for holding data, a revocation of consent is not particularly relevant in our circumstances.<br/><br/>In particular, if you have been banned from our platform we may retain your email address or name to ensure the account cannot be recreated.<br/><br/>If you choose to leave the site and remove your account, then your email address will be deleted from the site’s live database, and all your profile information outlined above will be deleted as well.  We do this because in this case, there would be no overriding legitimate interest nor public interest in our keeping the information in the site’s live database.",
        "title": "Right to Erasure"
      },
      {
        "paragraph": "It is not our intention to process data relating to children, and if we are informed that we are, we will take the appropriate action to stop doing so and so delete the data.",
        "title": "Children’s Personal Data"
      },
      {
        "paragraph": "Any questions or objections about how we are processing data, including requests for erasure, should be directed to info@trustcafe.io and we will endeavor to respond within the 30 days required by GDPR.",
        "title": "Objections and complaints"
      }
    ],
    "introduction": "For all of the below, the “lawful basis” for processing the information is that it is necessary to our work as a social media platform and that we have a legitimate interest in processing the information.  We do not rely upon consent as lawful basis, although we do sometimes ask for consent.",
    "subtitle": "GDPR Audit<br/>Undertaken May 18, 2018 by Jimmy Wales",
    "title": "Data Transparency and Privacy Policy"
  },
  "Profile": {
    "add-your-coverpic": "Add your cover image",
    "add-your-profilepic": "Add your profile picture",
    "change-your-coverpic": "Change your cover image",
    "change-your-profilepic": "Change your profile picture",
    "continue-editing": "continuar editando",
    "discard-changes": "Descartar mudanças",
    "drag-your-coverpic-here": "Drag your cover image here",
    "drag-your-image-here": "Arraste sua \n  Imagem para cá",
    "drag-your-profilepic-here": "Drag your profile picture here",
    "edit-my-profile": "Editar meu perfil",
    "followers": "Seguidores",
    "leave-a-message": "Leave a message on My Branch",
    "unsaved-changes": "Você tem mudanças não salvas, você tem certeza que deseja descartá-las?",
    "uploading-cover-picture": "Enviando imagem de capa",
    "uploading-profile-picture": "Enviando foto de perfil",
    "your-biography": "Sua biografia"
  },
  "Recommended": {
    "for-fun": "Por diversão",
    "serious-stuff": "Assuntos Sérios",
    "technology": "Tecnologia",
    "technology-and-science": "Tecnologia e Ciência",
    "to-help-build": "Ajudar a construir a Trust Café"
  },
  "RevisionList": {
    "by": "Por",
    "confirm-revert": "Você tem certeza que deseja reverter para essa versão?",
    "revert-to": "Reverter para",
    "revision": "Revisão",
    "revisions": "revisões",
    "there-are": "Há",
    "there-is": "Há"
  },
  "Roadmap": {
    "statuses": {
      "awaiting": "Aguardando",
      "complete": "Completo",
      "in-progress": "Em progresso",
      "ongoing": "Em curso",
      "paused": "Pausado",
      "testing": "Testando"
    },
    "timeline": [
      {
        "desc": "O primeiro passo para a nova visão de Jimmy é permitir que usuários avaliem uns aos outros.",
        "goal": "Classificação de Confiança"
      },
      {
        "desc": "Tipicamente utilizado como parte do bloqueio/eliminação de contas",
        "goal": "Arquivamento em massa das coisas de um utilizador"
      },
      {
        "desc": "Para que todos possamos discutir como está sendo utilizado",
        "goal": "Deixe todo mundo ver quem confia em quem e quanto"
      },
      {
        "desc": "Permitir que os utilizadores expressem o seu descontentamento com alguém",
        "goal": "Change trust rating bar so it is -20% to +100%"
      },
      {
        "desc": "Para que todos possamos discutir como está sendo utilizado",
        "goal": "Que todos vejam em quem é confiado por um utilizador"
      },
      {
        "desc": "Tabelas ou tabela simples para mostrar os Top Users",
        "goal": "Que todos vejam quem está altamente classificado no site"
      },
      {
        "desc": "Implementar primeiro um algoritmo extremamente básico para triar o separador descobrir pelo tempo E pela qualidade",
        "goal": "Mecanismo de confiança: Causa e efeito"
      },
      {
        "desc": "So interesting new users (based on trust) we identify can get big followings quickly",
        "goal": "Sugestões de pessoas no Onboarding"
      },
      {
        "desc": "",
        "goal": "Destruir um post e todos os comentários inteiramente"
      },
      {
        "desc": "Para que possamos analisar",
        "goal": "Veja quem as pessoas estão seguindo e quem as seguem"
      },
      {
        "desc": "Notificar-me quando alguém comentar no meu post ou o meu no comentário ou editá-los",
        "goal": "Notificações de comentários"
      },
      {
        "desc": "Remover a notificação da campainha quando alguém que eu siga postar",
        "goal": "Notificação de desclassificação"
      },
      {
        "desc": "Notificações por e-mail",
        "goal": "Ter notificações por e-mail"
      },
      {
        "desc": "O tipo padrão de e-mails, mas a eles o que precisam fazer para a promoção",
        "goal": "E-mails de 24 e 72 horas de novos utilizadores"
      },
      {
        "desc": "Eliminação e fusão de espaços são ferramentas de que vamos precisar",
        "goal": "Moderação Subwiki"
      },
      {
        "desc": "Um lugar para as pessoas discutirem e debaterem quaisquer questões com o conteúdo",
        "goal": "Centro de Moderação"
      },
      {
        "desc": "Para ajudar as pessoas que ficarem empacadas, iremos precisar deste guia útil",
        "goal": "Guia para iniciantes"
      },
      {
        "desc": "Este será um dia excitante, mas há algumas coisas que precisamos fazer primeiro.",
        "goal": "Open source Trust Café"
      },
      {
        "desc": "Uma funcionalidade que temos no WTS que ajudará a espalhar a palavra",
        "goal": "Links de 'Siga-me'"
      },
      {
        "desc": "Uma das funcionalidades mais solicitadas",
        "goal": "Capacidade para seguir um posto"
      },
      {
        "desc": "Antes de podermos fazer a transição para o Trust Café, isto terá que ser feito",
        "goal": "Preferências de newsletter"
      },
      {
        "desc": "Uma funcionalidade básica do WTS que ainda falta no Trust Café",
        "goal": "Posts fixados"
      },
      {
        "desc": "Uma funcionalidade básica do WTS que ainda falta no Trust Café",
        "goal": "Repostando"
      },
      {
        "desc": "Uma funcionalidade básica do WTS que ainda falta no Trust Café",
        "goal": "Bloqueio de usuário para usuário"
      },
      {
        "desc": "Uma funcionalidade básica do WTS que ainda falta no Trust Café",
        "goal": "Capacidade de desativar a edição colaborativa"
      },
      {
        "desc": "A esta altura podemos mudar permanentemente para o Trust Café",
        "goal": "Lançamento do MVP"
      },
      {
        "desc": "Ex: Mostrando horários no seu fuso horário e formato local",
        "goal": "Personalizações regionais"
      },
      {
        "desc": "Há muito tempo estávamos queremos ver mensagens em várias línguas",
        "goal": "Tradução post/comentário/mudanças recentes"
      },
      {
        "desc": "O algoritmo de pesquisa do WTS é horrível e queremos ter a certeza de que a sua substituição é realmente utilizável",
        "goal": "Pesquisa"
      },
      {
        "desc": "A publicação de vídeos em sites de redes sociais é comum e deve ser algo que apoiamos",
        "goal": "Upload de vídeos"
      },
      {
        "desc": "Com isso poderemos começar a trabalhar em um aplicativo móvel ou permitir que outras pessoas experimentem.",
        "goal": "Fluxo de código de autorização OAuth com PKCE"
      }
    ],
    "title": "Guia de features"
  },
  "SelfPromotionPolicy": {
    "details": [
      {
        "paragraph": "Commercial posting is frowned upon, but not outright banned. The occasional post to a product or service from an account <i>which is also contributing to the wider community</i>, although not necessarily welcome, is generally not grounds for community sanctions.",
        "title": "Commercial posting:"
      },
      {
        "paragraph": "If you have your own commercial/corporate blog, product, service, or brand that you wish to promote, please keep this on your personal branch. If you think there is wider interest, you can <a href=\"https://www.trustcafe.io/en/wt/request-a-branch\">request a branch</a> be made specifically for that content.<br/><br/>Please keep all posts, except those informing people of your existence, within these spaces.",
        "title": "Brand posting:"
      },
      {
        "paragraph": "We absolutely love to see people's personal (non-commercial) projects. So long as your posts aren't overwhelming people's feeds, and you are otherwise engaging with the community, we have no problem. If you would like to make 50 posts in a row about your cosplay journey (for example), we simply ask that you keep 47-48 of them to your personal branch.",
        "title": "Personal projects:"
      },
      {
        "paragraph": "Much like personal projects, we love to see and support members of our community in their professional endeavors. However, it remains important for us to see that you are otherwise engaging with the community. As above, if you would like to make 50 posts in a row about how you're building your new store (for example), we simply ask that you keep 47-48 of them to your personal branch.",
        "title": "Professional projects"
      },
      {
        "paragraph": "We consider posting spam to be separate from this discussion. 'SEO Experts' who are looking to post about (for example) 'Buying Windows In Melbourne!' will be banned."
      },
      {
        "paragraph": "Do not, under any circumstance, go to multiple user's branches and promote your products/services/brand there. This will result in an immediate ban."
      }
    ],
    "disclaimer": "<i>As ever, this is a working policy and not carved in stone. Please feel free to <a href='en/wt/trustcafe-feedback'>open a discussion</a> about how you think this could be improved.<br/><br/>Trust Café has a less prescriptive policy set than many other social media platforms. This is not because we are less committed to providing a safe and enjoyable environment for our users, but because our moderation is community-driven, and we trust their ability to discuss and adjudicate edge-cases. With that said...</i>",
    "note": "If you see spam, please downvote the user and give them a low trust rating. You can also alert an admin by adding a comment with the hashtag #spam",
    "title": "Self Promotion Policy",
    "tldr": "<b>TL;DR Community building and interaction is great. Product promotion is not. Please <a href=\"mailto:info@wikitribune.com\">email us</a> for more details.</b>"
  },
  "Sidebar": {
    "people-i-follow": "People I Follow",
    "people-i-trust": "People I Trust",
    "people-who-follow-me": "People Who Follow Me",
    "people-who-trust-me": "People Who Trust Me",
    "who-i-follow": "Who I Follow",
    "who-i-trust": "Who I Trust"
  },
  "Single": "Pagamento uma única vez",
  "SnackBar": {
    "this-is-a-test": "This is a test",
    "user-archived-and-banned": "User archived and banned",
    "post-moved-to-profile": "Post moved to user's profile",
    "post-moved-to-your-profile": "Post moved to your profile"
  },
  "SocialMedia": {
    "first-line": "Eu preciso de sua ajuda",
    "header": "Caro(a) contribuidor(a)",
    "is-translated": "",
    "paragraph-1": "Todos os problemas no mundo que eu me predispus a tentar resolver com a WikiTribune Social estão piores do que nunca. Nós estamos todos vendo a possibilidade de que Elon Musk compre o twitter e transforme-o em uma zona radical de liberdade de expressão para trolls. Ele é o  próprio notório de comportamento ruim no twitter - ele definitivamente não tornará o twitter menos tóxico.",
    "paragraph-2": "Ele prometeu permitir que Donald Trump volte para a plataforma em nome da \"liberdade de expressão\", mas vamos ser claros no que ele realmente quer: Trump manteve o Twitter na primeira página de qualquer jornal no mundo por metade de uma década e isso é muito lucrativo para ele trazer ele de volta, não importa o custo.",
    "paragraph-3": "Wikitribune tem um modelo diferente. Um modelo estranho, para ser sincero, mas eu acredito nele. Nós não queremos queremos que nossa plataforma cresça focada em ter o tanto de visualizações de página possivel através de maximização do vício e da ofensa",
    "paragraph-4": "Não há um caminho simples para evitar dizer isso. Eu escolhi não levantar dinheiro de venture capital porque eu quero manter controle criativo total para construir a visão que eu tenho em minha mente. Nos últimos dois anos, fui o pessoalmente o maior financiador do projeto - mas isso está pressionando meus recursos pessoais",
    "paragraph-5": "Nos últimos meses, nós voltamos de volta para a base de códigos e re-arquitetamos completamente ela do zero aplicando tudo o que nós temos aprendido. Nós temos uma ótima comunidade e o novo software irá ter novas formas de dar suporte e recompensar pessoas por fazerem posts de qualidade (Ao invés de como todas as outras redes sociais recompensam pessoas por fazerem virais viciantes e fúteis).",
    "paragraph-6": "Mas para concluir, eu preciso de sua ajuda. Eu tenho que pagar pelo trabalho de desenvolvimento para terminar a nova versão do site e eu preciso fazer um pouco de relação pública e marketing para difundir a palavra.  Eu preciso realmente começar a levar isso à diante como um relançamento. Se cada um de vocês puder proporcionar uma doação mesmo que seja pouco, Eu acho que nós teremos um verdadeiro pontapé para fazermos algo realmente revolucionário e novo. Nós não vamos saber ao menos que continuemos tentando.",
    "paragraph-7": "Essa é a nossa chance de quebrar as costas de redes sociais tóxicas oferecendo uma alternativa melhor. Como a compra iminente do twitter por Musk e os meio termos dos EUA se aproximando, o tempo é curto para criar um espaço para uma discussão mais saudável ",
    "second-header": "Nós estamos severamente com poucos recursos",
    "sign-off": "Jimmy Wales"
  },
  "Stripe": {
    "amount": "Quantia",
    "cancel": "Cancelar",
    "closed": "Fechado",
    "date": "Data",
    "description": "Descrição",
    "download": "Baixar",
    "due": "Vencimento",
    "fetch-invoice-error": "Há um erro nos detalhes do seu recibo",
    "fetch-payment-error": "Oops - Ocorreu um erro ao procurar os detalhes de seu pagamento",
    "fetch-subscriptions-error": "Oops - Ocorreu um erro ao buscar suas inscrições",
    "fetching-invoices": "Buscando recibos",
    "fetching-payments": "Buscando pagamentos",
    "fetching-subscriptions": "Buscando inscrições",
    "form-load-error": "Ocorreu um erro ao exibir o formulário de pagamento: ",
    "invoice": "Fatura",
    "no-subscriptions": "Você tem inscrições ativas.",
    "paid": "Pago",
    "pay-now": "Pague Agora",
    "payment": "Pagamento",
    "pending": "Pendente",
    "status": "Status",
    "thank-you": "Pagamento bem sucedido, Obrigado!"
  },
  "Subwiki": {
    "describe-subwiki": "Descreva essa subwiki",
    "member": "sem membros | um membro | {n} membros",
    "post": "sem posts | um post | {n} posts"
  },
  "Support": {
    "Elon-6-10-22": {
      "is-translated": "",
      "paragraph-1": "Você não precisa pagar - mas aqui está o porquê Eu estou pedindo para que faça isso!",
      "paragraph-2": "É apenas uma questão de tempo até Elon Musk cumpra sua promessa de trazer de volta Donald Trump e permitir muitos abusos e desinformação for legalmente possível.",
      "paragraph-3": "Se você pensa que isso é um futuro triste para o mundo, por favor ajude-me enviando uma pequena doação mensal ou anual - e ajudando a espalhar a palavra. Nós precisamos melhorar o software e gostaria de poder fazer isso sem pressão de investidores para aceitar anúncios e algoritmos destinados a viciar."
    },
    "bullet-point-1": "Lutar contra a toxicidade das redes sociais que estão destruindo a democracia",
    "bullet-point-2": "A pensativa e colaborativa plataforma de mídia social",
    "bullet-point-3": "Um site orientado pela qualidade de seu conteúdo, não por ultraje",
    "bullet-point-4": "Um design consciente e um passo para longe do vício em dopamina",
    "list-preface": "Ao nos dar suporte, você está dando suporte a:",
    "list-suffix": "Obrigado por tudo o que você pode fazer para nos ajudar com esse esforço.\n\nJimmy Wales",
    "no-thank-you": "Não obrigado, eu não gostaria de pagar ainda",
    "paragraph-1": "Muito Obrigado por ter escolhido contribuir financeiramente para o futuro do WT.Social. Suporte de \n pessoas como você é essencial para que continuemos a nos empenhar em melhorar \n nossos serviços e proporcionar um cenário mais saudável para a internet.",
    "paragraph-2": "Com seu suporte, nos estaremos aptos para investir em mais desenvolvimento e lançar um novo \n site o mais rápido possível e divulgar nossa plataforma.",
    "patron-link": "Descubra mais hoje",
    "patron-link-preamble": "Se você gostaria de nos ajudar em um nível maior, você pode se juntar a nós no Patron"
  },
  "There are no changes to show": "Não há nenhuma mudança para mostrar",
  "Time": {
    "ago": "há {time}",
    "day": "0 dias | um dia | {n} minutos",
    "fetched-in-time-from-place": "Buscado em {time} segundos {source}",
    "hour": "0 horas | uma hora | {n} horas",
    "minute": "0 minutos | um minuto | {n} minutos",
    "month": "0 meses | um mês | {n} meses",
    "second": "0 segundos | um segundo | {n} segundos",
    "year": "0 anos | um ano | {n} anos"
  },
  "Trust": {
    "0": "não conheço esse usuário de forma alguma",
    "1": "Hmm",
    "2": "Talvez",
    "3": "Ok",
    "4": "Ótimo!",
    "5": "Eu sempre confiaria nesse usuário!",
    "no-users-have-rated-user": "Nenhum usuário classificou {user}",
    "people-i-trust": "Pessoas em quem confio",
    "people-who-trust-me": "Pessoas que confiam em mim",
    "rated-by-this-user": "Avaliado por este usuário",
    "ratings-by-this-user": "Avaliações deste usuário",
    "ratings-of-this-user": "Ratings of this user",
    "set-trust-level": "Defina seu nível de confiança para este usuário",
    "user-has-not-rated-any-users": "{user} não classificou nenhum usuário",
    "user-rated-user2-x": "avaliado {user2} <strong>{trustLevel}%</strong>",
    "user-was-rated-x-by-user2": "foi avaliado <strong> {trust Level}% </strong> pelo {user2}",
    "users-rated-by": "Users rated by",
    "users-who-rated": "Users who rated",
    "you": "Este é você",
    "you-rated": "Você classificou este usuário:"
  },
  "TrustLevels": {
    "intro": "<b>Note: This is a draft document of ideas - we are seeking feedback and clarifying questions!</b><br/><br/>At Trust Café, trusted content is king. A user’s trust level influences how and where their content is visible to others. It also affects how much weight their votes carry, and can confer some additional permissions at higher levels. When a user is promoted (say from Bronze to Silver) their votes will retroactively count for more, thus automatically moving up the people beneath them.<br/><br/>Below is a quick (but not fully comprehensive) overview of each level of trust.",
    "levels": [
      {
        "description": "This is for new users and helps ensure that spammers or other bad actors don’t enter the wider trust ecosystem. After a brief period of time or sufficient constructive contributions, a user will be promoted from this rank.",
        "name": "Newbie/Guest",
        "unlocked": "None",
        "weight": "0"
      },
      {
        "description": "Users have shown they are not malicious actors and have now moved one level up to where they can enter the trust ecosystem.",
        "name": "Citizen",
        "unlocked": "Other users can vote to move you up the trust system",
        "weight": "0"
      },
      {
        "description": "Users have been voted trustworthy by enough members of the community that they are now able to give out trust points. This level is also the default for people who have joined the Trust Café membership club(?).",
        "name": "Bronze",
        "unlocked": "The ability to grant trust points to another user",
        "weight": "1"
      },
      {
        "description": "Users have been active or prominent enough on the website to gain a good level of trust. This is where we would expect the average active community member to be.",
        "name": "Silver",
        "unlocked": "The ability to create subwikis",
        "weight": "2"
      },
      {
        "description": "To reach this level, a user will have had to accrue 180 trust points. Users at gold level will have some markings on their account to delineate them from lower trust levels.",
        "name": "Gold",
        "unlocked": "Community administration tools",
        "weight": "4"
      },
      {
        "description": "A user will have accrued 1620 trust points, which we do not expect anyone to reach for quite some time. This is exclusively for power users or exceptionally trustworthy members of the community.",
        "name": "Platinum",
        "unlocked": "Zoom party (yes, really)",
        "weight": "8"
      },
      {
        "description": "See platinum. Just…moreso",
        "name": "Diamond",
        "unlocked": "The ability to instantly promote accounts to Bronze level",
        "weight": "16"
      },
      {
        "description": "Like platinum just (literally) exponentially moreso.",
        "name": "Double Diamond",
        "unlocked": "The ability to instantly promote accounts to Silver level",
        "weight": "32"
      }
    ],
    "title": "Trust Café Ranking System",
    "unlocked": "Unlocked",
    "vote_weight": "Vote Weight"
  },
  "UserDetails": {
    "apologies": "We are working hard to bring people the ability to update your own name and slug. In the meantime, you can email us at info{@}trustcafe[dot]io and we will be happy to update on your behalf.",
    "edit-my-account-details": "Edit My Account Details",
    "new-email": "New Email Address",
    "new-email-hint": "Enter your new email address",
    "update-account-header": "Update Your Account Details",
    "update-email": "Update Email",
    "update-email-form-button": "Update your email address"
  },
  "Userprofile": {
    "contributions": "Contributions",
    "everything": "Everything",
    "my-messages": "My Messages",
    "posts": "Posts"
  },
  "Welcome": {
    "account-created": "Account Created",
    "beginners-guide": "Clique aqui para se aprofundar no nosso Guia do iniciante da WTS",
    "branches": "Branches to follow:",
    "choose-theme": "Escolha seu tem",
    "click-to-select-pic": "Clique para selecionar uma foto de perfil",
    "customize-your-experience": "Customize Your Experience",
    "dive-in": "Mergulhar",
    "edit-your-profile": "Edit Your Profile",
    "finish": "terminar integração",
    "get-you-started": "Obrigado por se cadastrar para a Wikitribune Social 2.0. Aqui estão algumas coisas para você começar a fazer:",
    "profile-picture": "Escolha uma foto de perfil",
    "skip-onboarding": "Pular integração.",
    "subwikis": "Subwikis para seguir:",
    "support-trust-cafe": "Apoya Trust Café"
  },
  "Languages":{
    "en": "Inglês",
    "es": "Espanhol",
    "pt": "Português",
    "de": "Alemão",
    "ru": "Russo"
  },
  "LanguagesNative":{
    "en": "English",
    "es": "Español",
    "pt": "Português",
    "de": "Deutsch",
    "ru": "Русский"
  },
  "_COMMENT": "THESE ARE ALL HERE INSTEAD OF IN A SECTION BECAUSE WE NEED TO INTERPRET THE STRINGS IN RECENT CHANGES - RECENT CHANGES DESPERATELY NEEDS REFACTORING BUT UNTIL SUCH A POINT AS WE'VE DONE THAT THESE HAVE TO LIVE OUTSIDE OF A SECTION",
  "archived a post": "arquivou um post",
  "branchCount": "Branches created",
  "commentCount": "número de comentários",
  "created new branch": "created a new branch",
  "created new comment": "criou um novo comentário",
  "created new post": "Novo post criado",
  "created new subwiki": "criou uma nova subwiki",
  "created new userprofile": "criou um novo perfil de usuário",
  "created new vote": "Nova votação criada",
  "language": "Português",
  "okay": "Okay",
  "postCount": "número de postos",
  "profileAge": "Idade do perfil",
  "subwikiCount": "Ramificações criadas",
  "testing": "Eu estou testando!",
  "totalActions": "Total de ações",
  "totalFollowers": "Total De Seguidores",
  "totalProfilePosts": "Total De Postagens No Perfil",
  "updated a branch": "updated a branch",
  "updated a comment": "Comentario atualizado",
  "updated a post": "Atualizou um post",
  "updated a subwiki": "Atualizou uma subwiki",
  "updated a userprofile": "Perfil de usuario atualizado"
}