{
  "About": {
    "about-fin": "Фин участвует в онлайн-сообществах, основанных на сотрудничестве, с 2007 года, начиная с должности администратора Википедии. Сейчас Фин изучает экстремистские сообщества и просвещает людей о дезинформации в Интернете в свободное время.",
    "about-jezza": "Джезза пришел в проект Trust Café на WikiTribune в 2019 году из-за разочарования в социальных сетях, финансируемых за счет рекламы и разжигающих споры. Джез живет со своим котом Кексом и ведет полукочевой образ жизни в переоборудованном школьном автобусе.",
    "about-jimmy": "Джимми Уэйлс – основатель Википедии и сооснователь Fandom. WT.Social – его экспериментальный проект, попытка создать более здоровую (для вас и для мира) платформу социальной сети с упором на то, чтобы сделать голоса качества в сети громче.",
    "about-orit": "Орит - основательница Glass Voices, Соосновательница WikiTribune, бывший исполнительный директор Фонда Джимми Уэльса & активистка в сфере прав человека.",
    "about-paragraph": "Trust Café была создана с целью борьбы с дезинформацией в сфере социальных медиа. Мы – управляемая и модерируемая сообществом платформа, предназначенная для создания пространства, где обсуждения расцветают, а дезинформация быстро удаляется. Смотрите FAQ, чтобы узнать больше о философии нашей платформы.",
    "about-simon": "Саймон является разработчиком уже около двух десятилетий, и он застал много изменений в индустрии. Он начал программировать ещё мальчишкой, когда создавал текстовые приключенческие игры. Когда мир начал скатываться в хаос, ознаменованный Брекситом и Трампом, он решил использовать свои возможности, чтобы победить дезинформацию.",
    "fin-title": "Глава сообщества/Младший разработчик/Сооснователь",
    "jezza-title": "Менеджер сообщества",
    "jimmy-title": "Основатель",
    "orit-title": "Сбор средств",
    "simon-title": "Ведущий разработчик/Сооснователь"
  },
  "Admin": {
    "admin-stuff": "Admin Stuff",
    "edit-about-page": "You are now editing the about page",
    "get-user-groups": "Get User Groups"
  },
  "Annual": "Ежегодно",
  "Archive": {
    "archive": "Archive",
    "archive-comment": "Archive Comment",
    "archive-post": "Archive Post",
    "are-you-sure": "Are you sure you would like to archive this post?",
    "are-you-sure-comment": "Are you sure you would like to archive this comment?",
    "are-you-sure-post": "Are you sure you would like to archive this post?",
    "cancel": "Cancel"
  },
  "Auth": {
    "account-email-verification": "Подтверждение электронной почты профиля",
    "checking-details": "Checking details...",
    "checking-for-bots": "Проверка на ботов",
    "email-confirmation-required": "Требуется подтверждение адреса электронной почты",
    "email-match": "Адрес и пароль, которые вы ввели, не совпадают",
    "human-detected": "Обнаружен человек",
    "make-a-new-account": "Пожалуйста, обратите внимание на то, что для этого сайта вам нужно создать новую учётную запись. Аккаунты с WTS 1.0 скоро будут перенесены на эту платформу.",
    "newsletter": "Sign up to our newsletter (RU)",
    "please-check-your-email": "Пожалуйста, проверьте вашу почту",
    "please-choose-new-password": "Пожалуйста,придумайте новый пароль",
    "please-confirm-email": "Пожалуйста, подтвердите ваш адрес электронной почты, чтобы пользоваться WT.Social",
    "resend-email": "Отправить письмо ещё раз",
    "start-password-recovery": "Начать процесс",
    "your-name": "This will be your display name. It does not need to be your real name. For more see our <a href='ru/name-policy'>Name Policy</a> (RU)"
  },
  "BeginnersGuide": {
    "how-to": {
      "change-your-settings": {
        "text": "You can update your language, profile, and notification settings in the 'My Account' screen at any time. If you would like to help translate the site into your language, let us know in the WTS Features subwiki.",
        "title": "Change Your Settings"
      },
      "invite-your-friends": {
        "text": "THIS ISN'T STARTED YET",
        "title": "Invite Your Friends, Family, and Fans"
      },
      "keeping-track-of-conversations": {
        "text": "THIS ISN'T FINISHED - NEED TO ADD THE ABILITY TO SUBSCRIBE TO A POST\nWhen you make a post, you'll get a bell notification whenever someone edits it, or leaves a comment. You can also turn on email alerts for updates on the My Account page",
        "title": "Keeping Track of Conversations"
      },
      "share-a-post": {
        "text": "THIS ISN'T STARTED YET",
        "title": "Share a Post"
      },
      "talking-to-another-user": {
        "text": "WTS does not have private messaging, but you can leave someone a message by clicking on their username and creating a new post on their feed.",
        "title": "Talking To Another User"
      },
      "title": "How To",
      "using-hashtags": {
        "text": "THIS ISN'T STARTED AND WE NEED A COMMUNITY DISCUSSION ABOUT IT",
        "title": "Using Hashtags"
      }
    },
    "intro-paragraph": "Welcome to Wikitribune Social (or WTS as we like to call it)! Below is the most comprehensive guide to using our website. If you've found a bug, or would like to suggest an improvement - please make a post in the Bugs or WTS Features subwiki.",
    "latest-announcements": "Check here for the latest announcements from the official WTS team.",
    "more-info": {
      "comprehensive-list-of-subwikis-about-wts": {
        "text": "SAVING UNTIL SUBWIKIS ARE IMPORTED - THEN WE SHOULD COLLABORATE ON THIS",
        "title": "A Comprehensive List of Subwikis About WT.Social"
      },
      "creating-new-fact-check": {
        "text": "SHOULD DISCUSS",
        "title": "Six Steps to Creating a New Fact Check on WT.Social"
      },
      "difference-between-collaborative": {
        "text": "Posts to WTS are 'collaborative' by default. This allows anyone to edit your post. It sounds scary, but it really isn't! A transparent 'revision history' is on the right hand side, which shows what each person wrote.\n\nCommunity members usually reserve editing for minor improvements to posts, or alerting other users when something is wrong. We strongly encourage you to also get stuck in.\n\nNot every post needs to be collaborative. For example, maybe you want to post a personal picture, or your opinion on the latest book/movie. For these posts, you can turn off collaboration. Community and staff administrators will still be able to edit them, but this is mostly reserved for rule-breaking posts.",
        "title": "The Difference Between a Collaborative and Individual Post"
      },
      "title": "More Info",
      "who-runs-this-place": {
        "text": "On the day to day level? People like you. For more information about staff, <a href='About'>please see the 'About Us' page.</a>",
        "title": "Who Runs This Place?"
      }
    },
    "sections": [
      {
        "items": [
          {
            "text": "Although you can see some similarities in our design, the social aspect of Trust Café is a lot different than what you might be used to. The website is dedicated to sharing trustworthy content and creating substantive discussions. You won’t see a lot of minion memes or other low quality content here.<br/><br/>We also operate on a peer-to-peer moderation system. That means you are empowered to make this a great place for all. If you see spam, misinformation, or hate speech, let people know by using the trust rating system.<br/><br/>Staff can and will step in if necessary, but the community (including community administrators) are the heart of the website.",
            "title": "What makes Trust Café different from Facebook and Twitter?"
          },
          {
            "text": "A good quality Trust Café post should have accurate and up-to-date information, provide sources for any claims made, and be written in a clear, concise, and easy-to-understand manner. Additionally, the post should be respectful of other viewpoints and should not contain any offensive language or content.",
            "title": "What makes a ‘quality post’?"
          },
          {
            "text": "The trust system is a great way for users to rate other users as trustworthy when they post good quality content. It helps create an environment of accountability and encourages people to be more mindful about the content that they are posting. Additionally, it can also help identify untrustworthy people who may be intentionally posting spam or inappropriate material.",
            "title": "Which users are trustworthy?"
          },
          {
            "text": "You can edit your own posts on Trust Café, like on any social media website. Unlike other platforms, users can edit each other’s posts to correct mistakes, reword headlines, and flag misinformation. In this way Trust Café is like a wiki: everyone can help curate quality content.",
            "title": "Editing A Post"
          },
          {
            "text": "If you see a comment that shouldn’t be there, such as hate speech or advertisements, you can hide the post from view for yourself and everyone else. This is one of the ways the community helps keep Trust Café tidy. If a comment is hidden by mistake, it can be unhidden just as easily.<br/><br/>When a user hides or unhides a comment, the change is logged in the Recent Changes list so that everyone can see. In addition to encouraging action on bad actors with hidden comments, this transparency measure also prevents clandestine abuse of the system.",
            "title": "Hiding Comments",
            "under_construction": true
          }
        ],
        "title": "INTRODUCTION"
      },
      {
        "items": [
          {
            "text": "You’ll notice that your home feed has two tabs: ‘Your Feed’ shows you every post from people or subwikis you are following, and ‘For You’ shows you all the latest posts, although as the trust network develops, new accounts and potential spammers will be displayed below trusted community members.",
            "title": "About Your Feed"
          },
          {
            "text": "A ‘space’ is a place to post content about a given topic, like subreddits or Wikipedia Projects. Trust Café has spaces for everything from US Politics to Puzzles from Around The World.<br/><br/><a href='subwikis/alphabetical'>You can browse all Trust Café spaces here.</a>",
            "title": "About Spaces"
          },
          {
            "text": "Trust Café believes in being as transparent as possible. If you click on <a href='recentchanges'>‘Recent Changes’</a> you can see every action taken on the website. This helps keep everyone accountable and is a great way to look into how moderation works on the platform.",
            "title": "About Recent Changes"
          },
          {
            "text": "On the day-to-day level? People like you!<br/><br/>For information about our staff team, please see <a href='About'>the ‘About Us’ page.</a>",
            "title": "Who Runs This Place?"
          }
        ],
        "title": "ABOUT"
      },
      {
        "items": [
          {
            "text": "You can update your language, notification settings, and other account details in <a href='myaccount'>the ‘My Account’ page</a> at any time. If you would like to help translate the site into your language, let us know in <a href='https://discord.gg/ftyB5yzwH5'>the official Trust Café Discord server</a>.",
            "title": "Change Your Settings"
          },
          {
            "text": "You can update your language, notification settings, and other account details in <a href='myaccount'>the ‘My Account’ page</a> at any time. If you would like to help translate the site into your language, let us know in <a href='https://discord.gg/ftyB5yzwH5'>the official Trust Café Discord server</a>.",
            "title": "Talk to Another User"
          },
          {
            "text": "UNDER CONSTRUCTION",
            "title": "Invite Your Friends, Family, and Fans",
            "under_construction": true
          },
          {
            "text": "This should explain both on-platform and off-platform sharing since both are important to growth......... To share a Trust Café post to your followers on other social media sites, use the share button [add image below] to share directly to Facebook or Twitter, or copy the link and paste it into an email or other message.",
            "title": "Share a Post",
            "under_construction": true
          },
          {
            "text": "THIS ISN’T FINISHED - NEED TO ADD THE ABILITY TO SUBSCRIBE TO A POST........When you make a post, you’ll get a bell notification whenever someone edits it, or leaves a comment. You can also turn on email alerts for updates on <a href='myaccount'>the ‘My Account’ page</a>.",
            "title": "Keep Track of Conversations",
            "under_construction": true
          },
          {
            "text": "THIS ISN’T STARTED AND WE NEED A COMMUNITY DISCUSSION ABOUT IT",
            "title": "Use Hashtags",
            "under_construction": true
          }
        ],
        "title": "HOW TO"
      },
      {
        "items": [
          {
            "text": "Posts to Trust Café are collaborative, which allows anyone to edit your post. It sounds scary, but it really isn’t! A transparent ‘revision history’ is on the right hand side, which shows what each person wrote and when they wrote it.<br/><br/>Community members usually reserve editing for minor improvements to posts, or alerting other users when something is wrong. We strongly encourage you to follow these practices.",
            "title": "Collaborative Editing"
          },
          {
            "text": "SAVING UNTIL SUBWIKIS ARE IMPORTED - THEN WE SHOULD COLLABORATE ON THIS. This section will need different links for different languages since the spaces are separate.",
            "title": "Spaces About Trust Café",
            "under_construction": true
          },
          {
            "text": "UNDER CONSTRUCTION: add links to Self Promotion Policy, NSFW Policy, Names and Pseudonyms Policy",
            "title": "Terms of Service",
            "under_construction": true
          }
        ],
        "title": "MORE DETAILS"
      }
    ],
    "terms-of-service": {
      "names-and-pseudonyms": "Names and Pseudonyms",
      "nsfw-policy": "NSFW Policy",
      "self-promotion-policy": "Self Promotion Policy",
      "title": "TERMS OF SERVICE"
    },
    "the-basics": {
      "different-from-facebook": {
        "text": "Although you can see some similarities in our design, the social aspect of WTS is a lot different than what you might be used to. The website is mostly dedicated to sharing news and creating substantive discussions. You won't see a lot of minion memes or other low quality content here.\n\nWe also operate on a peer-to-peer moderation system. That means you are empowered to make this a great place for all. If you see a comment you don't like, hide it! If you see spam, misinformation, or hate speech, let people know.\n\n Staff can and will step in if necessary, but the community (including community administrators) are the heart of the website.",
        "title": "What makes WTS different from Facebook?"
      },
      "editing-a-post": {
        "imgcaption": "The Edit Button",
        "subitem": "What's a collaborative post?",
        "text": "Yes, you can edit collaborative posts! By clicking on the edit icon, you can collaborate with other users on fact checks, fix headlines, or help fight against spam, misinformation, and hate speech. If you want to try it out, give this post an update.",
        "title": "Editing A Post"
      },
      "hiding-comments": {
        "text": "UNDER CONSTRUCTION",
        "title": "Hiding Comments"
      },
      "quality-post": {
        "text": "On WTS, not every post has to be 'quality'. It's great to get people's holiday snaps and jokes. But in the interest of generating meaningful discourse, try to post non-inflammatory articles from trustworthy sources.\n\nIf you do find something interesting outside of that scope that you think needs debunking, add it with the hashtag #factcheck to let people know.",
        "title": "What makes a 'quality post'?"
      },
      "title": "The Basics"
    },
    "title": "A Beginner's Guide to WT.Social",
    "using-the-website": {
      "about-recent-changes": {
        "text": "RECENT CHANGES ISN'T FINISHED SO MORE TO ADD\nWTS believes in being as transparent as possible. If you click on 'Recent Changes' you can see every action taken on the website. This helps keep everyone accountable and is a great way to look into how moderation works on the platform.",
        "title": "About Recent Changes"
      },
      "about-subwikis": {
        "text": "A subwiki is a place to post content about a given topic, like subreddits or Wikipedia Projects. WT.Social has subwikis on everything from US Politics to Puzzles from Around The World.\n\nYou can browse subwikis by going to THIS IS NOT STARTED YET.",
        "title": "About Subwikis"
      },
      "about-your-feed": {
        "text": "You'll notice that your feed has two tabs. 'My Feed' shows you every post from people or subwikis you are following.\n\nDiscover shows you all the latest posts, although new accounts and potential spammers will be displayed below trusted community members.",
        "title": "About Your Feed"
      },
      "title": "Using The Website"
    },
    "visual-guide": "Visual learner? Check out the Visual Guide to WTS here."
  },
  "Contact": {
    "contact-us": "Связаться с нами",
    "contact-us-paragraph": "Placeholder contact us paragraph",
    "discord": "Или можете написать нам в Discord",
    "email": "Адрес электронной почты",
    "message": "Сообщение",
    "name": "Имя",
    "send": "Отправить",
    "subject": "Тема",
    "success": "Спасибо, что связались с нами"
  },
  "EditBox": {
    "identifier": "идентификатор"
  },
  "Errors": {
    "email-confirmation-error": "There was an error confirming your address",
    "no-identifier": "Нет идентификатора!",
    "no-settings": "Нет настроек!"
  },
  "FAQS": {
    "is-translated": "",
    "questions": [
      {
        "answer": "Нет. Категорически нет. Миссия WT.Social — предоставить нетоксичную платформу социальных медиа, что невозможно в среде, в которой принимается всё. Мы занимаем активную позицию против разжигания ненависти, притеснений и дезинформации.",
        "title": "WT.Social – ‘платформа со свободой слова’?"
      },
      {
        "answer": "No. Our guidelines are politically agnostic. The political leanings of users are not a consideration when making moderation decisions. What we want to encourage is <i>reasoned discourse</i> among people who may have many disagreements.  Any community member who can refrain from hate speech, harassment, and misinformation is welcome. Having said that, it should (but unfortunately does not) go without saying that Nazis and other genocidally-inclined folks are not welcome here.",
        "title": "Является ли WT.Social платформой левых или правых?"
      },
      {
        "answer": "Exactly what it sounds like. Although staff members can and will step in to remove users violating our guidelines, and to shield users from the worst excesses of the internet, the everyday moderation of the platform can and should be handled by our users.<br/><br/>Почему? Потому что модерация “сверху вниз” (или, что ещё хуже, модерация с помощью искусственного интеллекта) не работает. Модерация Фейсбука создала целый <a href='https://www.irishtimes.com/business/technology/life-as-a-facebook-moderator-people-are-awful-this-is-what-my-job-has-taught-me-1.4184711'>класс сотрудников с ПТСР</a> with the inability to act when they see patently harmful content.<br/><br/>Algorithmic moderation often creates policies which reinforce existing social biases and can <a href='https://www.washingtonpost.com/technology/2021/11/21/facebook-algorithm-biased-race/'>promote racism</a>. Social media companies reliant solely on ad-driven revenue <a href='https://www.forbes.com/sites/petersuciu/2021/08/02/spotting-misinformation-on-social-media-is-increasingly-challenging'>allow misinformation to spread</a> for the sake of engagement and clicks.<br/><br/>And it’s not scalable. AI <a href='https://www.digitalinformationworld.com/2021/02/ai-content-moderation-systems-are.html'>cannot currently keep up</a> with the ever-changing nature of human behavior, and even tech giants cannot afford to hire enough human moderators to police their platforms.<br/><br/>WT.Social allows users to edit posts, and hide comments. They can directly combat spam, request and start collaborative fact checks, and otherwise shape the platform into what they want it to be. It’s a radical idea, but we firmly believe it’s the future.",
        "title": "Что такое Peer-to-Peer-модерация?"
      },
      {
        "answer": "We provide a link on sign-up allowing you to invite people to follow you on WT.Social. The url is <code>https://wt.social/YOUR-USERNAME-HERE/followme</code>",
        "title": "How Can I Bring My Followers To WT.Social?"
      },
      {
        "answer": "Такие же пользователи, как вы. Users like you. We have not taken VC money, nor do we allow advertisers on our platform. We rely on the generosity of our community to keep the lights on. If you would like to help, please consider making a contribution <a href='https://contribute.wt.social/'>here</a>.",
        "title": "Кто спонсирует WT.Social?"
      },
      {
        "answer": "You sure can! So long as you follow our Self-Promotion Guidelines as set out <a href='https://wt.social/self-promotion'>here</a>.",
        "title": "Can I Promote My Blog/Podcast/Business Here?"
      },
      {
        "answer": "WT.Social began as an attempt to create user-driven news content. To that end, we named ourselves WikiTribune (an in <a href='https://dictionary.cambridge.org/dictionary/english/tribune'>newspaper</a>, not the Roman forum). Although there was interest in the idea, there were too many barriers to make a flourishing platform. In light of this, we pivoted to creating value in the social media space. WikiTribune was shortened to WT.",
        "title": "Why Is It Called Wt.Social?"
      },
      {
        "answer": "Not at the present time, as we haven’t seen any persuasive use case for the blockchain for our actual needs.  We are open to financial support in pretty much any currency, including cryptocurrency, though!",
        "title": "Are You Open To Being On The Blockchain?"
      }
    ]
  },
  "Following": {
    "following-nobody": "You're not following anybody",
    "users-following": "People You Follow"
  },
  "Sidebar": {
    "who-i-trust": "Who I Trust",
    "people-i-trust": "People I Trust",
    "people-who-trust-me": "People Who Trust Me",
    "who-i-follow": "Who I Follow",
    "people-who-follow-me": "People Who Follow Me",
    "people-i-follow": "People I Follow"
  },
  "General": {
    "404": "Эта страница, вероятно, была ассимилирована надоедливыми Боргами и больше не 'здесь'",
    "FAQS": "Частые вопросы",
    "about": "О нас",
    "about-header": "Добро пожаловать на Trust Café",
    "about-paragraph": "Возможно, сейчас я слушаю какой-то саундтрек....\n\nКто знает! ?",
    "advanced": "Продвинутый",
    "all": "Все",
    "all-branches": "Все ветки",
    "all-posts": "Все посты",
    "are-you-sure-delete-key-pair": "Вы уверены, что хотите удалить эту пару ключей?",
    "back": "Назад",
    "branch-for-new-post": "Ветка для нового поста",
    "branch": "Ветк",
    "branches": "Ветки",
    "by-signing-up-you-agree": "Регистрируясь, вы соглашаетесь с нашими {TermsLink} и {PrivacyLink}",
    "cancel": "Отмена",
    "cant-log-in-right-now": "Извините, сейчас вы не можете войти",
    "change": "Изменить",
    "changes": "Изменения",
    "choose-scopes": "Выберите области, которые вы хотите предоставить вашему клиенту",
    "choose-your-language": "Выберите язык",
    "close": "Close",
    "comment": "Комментировать",
    "comment-fetch-error": "Упс! Нечего получать в комментариях!",
    "comment-n": "0 комментариев | {n} комментарий | {n} комментария | {n} комментариев",
    "comment-placeholder": "Оставьте комментарий",
    "comment-text": "Текст комментария",
    "commented-on-a-post": "Прокомментировал пост",
    "commented-on-a": "Прокомментировал",
    "comments-show-all": "Show all comments",
    "confirm-password": "Подтвердите пароль",
    "contact": "Связаться с нами",
    "continue-reading": "Продолжить чтение",
    "copy-link": "Копировать ссылку",
    "create": "Создать",
    "create-a-branch": "Создать ветку",
    "create-account": "Create Account",
    "create-new-client-credentials-key-pair": "Создать новую пару ключей для клиентских данных",
    "created-a": " создал(а) ",
    "created-new-branch": "оставил(а) новую ветку",
    "created-new-comment": "оставил(а) новый комментарий",
    "created-new-post": "создал(а) новый пост",
    "created-new-userprofile": "создал(а) новый профиль пользователя",
    "created-new-vote": "оставил(а) новый голос",
    "dark-mode": "Тёмная тема",
    "describe-your-new-branch": "Опишите вашу новую ветку",
    "discover": "Откройте больше",
    "downvote": "Голос против",
    "edit": "Редактировать",
    "edit-attached-link": "Редактировать прикрепленную ссылку",
    "edit-copy": "Редактировать копию",
    "edit-this-post": "Редактировать этот пост",
    "editing": "Редактирование",
    "email-address": "Адрес электронной почты",
    "error-loading-link": "При загрузке ссылки произошла ошибка",
    "explore": "Исследовать",
    "first-name": "Имя",
    "follow": "подписаться",
    "followed-you": "подписался(ась) на вас",
    "following": "Подписки",
    "for-you": "Для вас",
    "forgot-password": "Забыли пароль?",
    "forgotten-password": "Забытый пароль",
    "guest": "Гость",
    "home": "Главная страница",
    "i-agree": "Я согласен с обоими",
    "information": "Информация",
    "is-collaborative": "совместный пост",
    "item-cannot-be-followed": "Не удаётся подписаться",
    "last-name": "Фамилия",
    "load-more": "Загрузить ещё",
    "load-new": "Load new posts",
    "loading-full-data": "Загрузка данных по ссылке",
    "loading-user": "Загрузка пользователя",
    "login": "Войти",
    "login-or-register": "Войти или зарегистрироваться",
    "logout": "Выйти",
    "main-menu": "Главное меню",
    "make-new-branch": "Создать новую ветку",
    "manage-api-access": "Управление доступом к API",
    "many-comments": "комментарии/комментариев/комментария",
    "monthly": "Ежемесячно",
    "more-info": "Больше информации",
    "must-be-13-years-old": "Вы должны быть не моложе 13 лет, чтобы использовать Trust Café",
    "must-be-online-to-continue": "Вы должны быть онлайн, чтобы продолжить",
    "my-account": "Мой профиль",
    "my-payments": "Мои платежи",
    "new-post-button": "Создать новый пост",
    "new-branch-name": "Название новой ветки?",
    "next": "Следующие",
    "next-month": "В следующем месяце",
    "no-user": "НЕТ ПОЛЬЗОВАТЕЛЯ",
    "none": "Ни один",
    "not-collaborative": "личный пост",
    "on": "в",
    "one-comment": "комментарий",
    "one-moment": "Минутку, пожалуйста",
    "one-off": "One off",
    "one-or-more-fields-are-invalid": "Одно или несколько полей неверны",
    "oops-looks-like-youve-entered-the-wrong-login": "Упс! Похоже, вы ввели неправильный логин",
    "pages": "Pages",
    "password": "Пароль",
    "password-input-must-match": "Пароли должны совпадать",
    "password-recovery": "Восстановление пароля",
    "pay-with-debit/credit-card": "Оплатить с помощью дебетовой/кредитной карты",
    "pay-with-paypal": "Оплатить с помощью Paypal",
    "please-enjoy-your-stay": "Приятного пребывания",
    "post-placeholder": "О чём вы думаете сейчас?",
    "post-text": "Текст поста",
    "posted-in": "опубликовал(а) в",
    "posted-in-their-branch": "опубликовал(а) в их ветке",
    "posted-in-their-branch-at": "опубликовал(а) в их ветке в",
    "posted-to": "опубликовал(а) в",
    "posted-to-user-profile-slot-1": "опубликовано в профиле ",
    "posted-to-user-profile-slot-2": "",
    "post": "post",
    "posts": "Posts",
    "posts-by-id": "Публикации по ID (тест)",
    "post-not-inluded-in-for-you-text": "Поскольку у вас сейчас отрицательное доверие, это не будет видно в ленте Для вас. Ваши посты будут видны тем, кто следует за вами напрямую, и будут видны в любой конкретной ветке, в которую вы публикуете. Положительные оценки доверия обычно даются сообществом за публикацию ссылок на качественный контент и за вдумчивые и добрые комментарии.",
    "post-on-your-profile": "Post On Your Profile",
    "previous-month": "Прошлый месяц",
    "privacy-policy": "Политика конфиденциальности",
    "profile": "профиль",
    "profile-url": "URL профиля",
    "profile-posts": "Посты профиля",
    "random-box": "Случайная коробка",
    "read-all-posts": "Вы прочитали все посты здесь!",
    "recent-changes": "Последние изменения",
    "recommended-branches": "Рекомендуемые ветки",
    "refresh": "Обновить",
    "register": "Регистрация",
    "remove": " Удалить",
    "replied": "ответил(а)",
    "replied-at": "ответил(а) в",
    "reply": "Ответить",
    "required": "Нужно заполнить",
    "removed-posts": "Удаленные посты",
    "restart": "Перезапустить",
    "retry": "Попробовать ещё раз",
    "revisions": "Пересмотры",
    "save": "Сохранить",
    "settings": "Настройки",    
    "show-less": "Show less",
    "subscribe": "Подписаться",
    "take-note": "Обратите внимание на следующие данные. Если вы их потеряете, вам нужно будет создать новый секрет.",
    "tell-other-community-members-a-little-bit-about-you": "Расскажите другим участникам сообщества немного о себе.",
    "terms-and-conditions": "Условия и положения",
    "testing": "Тестирую",
    "there-are-new-posts": "There are new posts to show",
    "there-are-no-changes-to-show": "Изменений нет",
    "there-arent-any-followers-followed-by-users": "Этот пользователь не следит за другими пользователями",
    "there-arent-any-followers-following-subwikis": "Этот пользователь не следит за ветками",
    "there-arent-any-followers-following-users": "За этим пользователем не следят другие пользователи",
    "there-arent-any-posts-here": "Здесь нет постов",
    "there-is-a-problem-with-your-account": "С вашим аккаунтом возникла проблема",
    "there-was-an-error": "Произошла ошибка",
    "this-comment-has-been-archived": "Этот комментарий был архивирован",
    "trust": "Доверие",
    "unfollow": "отписаться",
    "updated-a-branch": "обновил(а) ветку",
    "updated-a-comment": "обновил(а) комментарий",
    "updated-a-post": "обновил(а) пост",
    "updated-a-userprofile": "обновил(а) профиль пользователя",
    "updated-your": " обновил(а) ваш ",
    "url-is-available": "Этот URL доступен",    
    "url-is-invalid": "This URL is invalid",
    "url-is-taken": "Этот URL занят",
    "user-profile": "Профиль пользователя",
    "users": "Пользователи",
    "visit-branch": "Посетить ветку",
    "welcome": "Добро пожаловать",
    "welcome-to-wts2": "Добро пожаловать на WTS2",
    "yearly": "Ежегодно",
    "you-are-currently-browsing-as-a-guest": "Вы просматриваете сайт как гость. Войдите или зарегистрируйтесь, чтобы публиковать и комментировать.",
    "you-have-been-disconnected": "Вы отключены от Интернета",
    "you-have-max-clients": "У вас максимальное количество клиентов",
    "you-have-no-api-clients": "У вас нет клиентов API",
    "you-need-to-be-online": "Вам нужно быть онлайн, чтобы использовать Wikitribune Social",
    "you-must-choose-a-unique-profile-url": "Вы должны выбрать уникальный URL профиля",
    "your-client-ids": "Ваши ID клиентов",
    "your-conection-has-been-restored": "Ваше соединение восстановлено",
    "your-email-is-not-verified-notice": "Ваш адрес электронной почты не подтвержден, поэтому некоторые функции отключены. Пожалуйста, проверьте свою почту для получения ссылки для подтверждения.",
    "your-feed": "Ваша лента",
    "your-language": "Ваш язык",
    "your-new-creds": "Ваши новые учетные данные API клиента"
  },
  "Monthly": "Ежемесячно",
  "Mute": {
    "btn-mute-this-user": "Mute this user",
    "btn-unmute-this-user": "Unmute this user",
    "no-muted-users": "You have not muted any users",
    "title-manage-mutes": "Review or unmute users you have muted"
  },
  "MySubwikis": {
    "browse-subwikis": "Browse Subwikis",
    "my-subwikis": "My Subwikis",
    "not-following-subwikis": "You are not currently following any subwikis."
  },
  "Newsletter": {
    "subscribe": "Подпишитесь на нашу рассылку",
    "unsubscribing": "Отписка от рассылки",
    "unsubscribed": "Вы отписались от нашей рассылки",
    "error-unsubscribe": "Ошибка при отписке от рассылки",
    "subscribing": "Подтверждение подписки на рассылку",
    "subscribed": "Вы подписаны на нашу рассылку. До встречи на следующей неделе!",
    "error-subscribe": "Ошибка при подписке на рассылку"
  },
  "Notifications": {
    "action_article_updated": "updated your post",
    "action_comment_reply": "replied to you",
    "action_profile_post": "posted on your profile",
    "action_rank_up": "You were promoted",
    "action_trust_created": "rated you",
    "article-updates": "Обновления постов",    
    "mark_all_as_read": "Mark all as read",
    "new-comment": "Новый комментарий",
    "new-comment-responding-to something-I-have-done": "Новый комментарий к тому, что я сделал(а)",
    "new-followers": "Новые подписчики",
    "new-message-to-me-on-my-profile": "Новое сообщение в моём профиле",
    "new-messages": "Новые сообщения",
    "notification-preferences": "Notification Preferences",
    "preferences": "Настройки email",
    "rank-down": "Rank Down",
    "rank-up": "Rank Up",
    "someone-trusts-me": "When someone new trusts me",
    "someone-trusts-me-more": "When someone increases their trust rating of me",
    "trust-created": "New trust",
    "trust-increased": "Trust Increased",
    "update-to-an-article-I-have-created-or-edited": "Обновление поста, который я создал(а) или отредактировал(а)",
    "when-a-user-follows-me": "Когда пользователь подписывается на меня",
    "when-my-rank-decreases": "When I am demoted a rank",
    "when-my-rank-increases": "When I am promoted a rank",
    "when-someone-posts-to-me-directly": "When someone posts to me directly",
    "when-something-i-have-posted-or-edited-is-edited": "When something I have posted or edited is edited further"
  },
  "Password": {
    "change-password": "Сменить пароль",
    "forgotten-password": "Забытый пароль",
    "login-now": "Login now",
    "minimum-characters": "минимум 8 символов",
    "password-recovery": "Восстановление Пароля",
    "password-reset-sentence-part-1": "Please be sure to follow the full link from your email. If you continue to have issues please",
    "password-reset-sentence-part-2": "или попробуйте",
    "password-reset-sentence-part-3": "resetting your password again",
    "there-was-a-problem-validating-the-reset-token": "There was a problem validating the reset token.",
    "your-password-could-not-be-changed-at-this-time": "В данный момент ваш пароль не может быть изменён.",
    "your-password-has-been-changed": "Ваш пароль был изменён",
    "current-password": "Current password",
    "new-password": "New password",
    "update-password": "Update password"
  },
  "Patronage": {
    "amount-is-required": "Сумма обязательна",
    "become-a-patron": "Стать Спонсором",
    "box-header-big-hugs": "\"Большие Объятия\" Бронзовый - Ежегодно",
    "box-header-free": "Гражданин - Бесплатно",
    "box-header-monthly": "Бронзовый - Ежемесячно",
    "box-header-yearly": "Бронзовый - Ежегодно",
    "finding-currency-data": "Поиск данных о валюте и клиенте",
    "header": "Выберите ваш план спонсорства",
    "intro": "Без рекламы. В TrustCafé.io наше сообщество процветает благодаря взаимному доверию, а не рекламе. Выберите уровень вашего спонсорства и станьте частью сообщества, где искренние связи продвигают вас вперед.",
    "make-a-one-off-payment": "Сделать одноразовый платеж",
    "membership-page-payment-complete": "Платеж завершен",
    "next-payment-expected": "Ожидаемый следующий платеж",
    "one-off-payment-h1": "Сделать одноразовый платеж",
    "one-off-payment-intro": "Мы очень благодарны за любые ваши взносы, которые помогут нам в нашей миссии по созданию безопасных и интересных онлайн-пространств без дезинформации.",
    "one-off-payment-complete": "Спасибо за ваш платеж!",
    "page-title": "Ваше Спонсорство Trust Café",
    "patronage": "Спонсорство",
    "point-all-bronze": "Все преимущества Бронзы",
    "point-badge": "Значок профиля",
    "point-discount": "Значительная скидка",
    "point-earn-bronze": "Заработайте бронзу через доверие сообщества",
    "point-free": "Начать бесплатно",
    "point-immediate": "Ваши голоса доверия начинают учитываться немедленно",
    "point-more-help": "Помогите нам еще больше в создании здорового интернета",
    "term": "Срок",
    "thank-you": "Спасибо за ваш вклад.",
    "your-current-membership": "Ваше текущее спонсорство",
    "my-patronage": "My Patronage",
    "cancel-membership": "Cancel membership",
    "cancel-membership-confirmation": "Cancel membership confirmation",
    "are-you-sure-you-want-to-cancel-membership": "Are you sure you want to cancel your membership?",
    "do-not-cancel": "Do not cancel",
    "confirm-cancelleation": "Confirm cancellation",
    "your-membership-has-been-cancelled": "Your membership has been cancelled"
  },
  "Pay with Paypal": "Оплатить через Paypal",
  "Pay with debit/credit card": "Оплатить дебетовой/кредитной картой",
  "PayPal": {
    "new-paypal-contribution": "Новое PayPal-пожертвование",
    "paypal-thank-you": "Спасибо большое!"
  },
  "Payment": {
    "click-here": "нажмите сюда.",
    "contributions": "Пожертвования",
    "currency": "Валюта",
    "error-fetching-schedules": "There was an error fetching your payment schedules",
    "fetching-schedules": "Fetching payment schedules",
    "go-back-to-wt-social": "Вернуться на WT.Social",
    "hint-receipt": "Это просто для чека",
    "if-you-would-like-to-make-an-account": "If you would like to make an account",
    "payment-amount": "Сумма",
    "payment-are-you-sure": "Вы уверены, что хотите отменить эту подписку?",
    "payment-cancel-confirm": "Отменить?",
    "payment-cancelled": "ОТМЕНЕНО",
    "payment-cancelling": "Отмена",
    "payment-continue": "Продолжить",
    "payment-contributions": "Пожертвования",
    "payment-created": "Created",
    "payment-custom": "Другое",
    "payment-custom-amount": "Другая сумма",
    "payment-form-choose-your-plan": "Choose your plan",
    "payment-form-new-contribution": "Новое пожертвование",
    "payment-form-next-payment": "Далее: оплата",
    "payment-form-payment": "Оплата",
    "payment-form-thank-you": "Спасибо вам за пожертвование.",
    "payment-provider": "Provider",
    "payment-status": "Status",
    "payment-subscription": "Подписка",
    "payment-subscriptions": "Подписки",
    "payment-term": "Term",
    "support": "Support Trust Café (RU)",
    "user-amount-currency": "Сумма/Валюта",
    "user-fetch-payment-error": "При загрузке ваших пожертвований произошла ошибка.",
    "user-payment-provider": "Provider",
    "your-contribution-wont-go-to-waste": "Ваше пожертвование не пропадёт даром!",
    "your-email-address": "ваш адрес электронной почты"
  },
  "Post": {
    "a-branch": "Ветка",
    "branch-search": "Начните вводить для поиска",
    "collaborative": "Сделать этот пост совместным",
    "do-you-want-other-users-to-be-able-to-edit-this-post": "Вы хотите, чтобы другие пользователи могли редактировать этот пост?",
    "leave-a-message-for": "Оставить сообщение ",
    "my-profile": "Мой Профиль",
    "post": "Пост",
    "post-actions": "Действия с постом",
    "read-this-post": "Читать этот пост",
    "sharing-options": "Поделиться",
    "to-branch": "Опубликовать в ветке",
    "where": "Где бы вы хотели опубликовать?"
  },
  "Profile": {
    "continue-editing": "Продолжить Редактирование",
    "discard-changes": "Сбросить изменения",
    "drag-your-image-here": "Перетащите\nизображение сюда",
    "edit-my-profile": "Редактировать Мой Профиль",
    "followers": "Подписчики",
    "unsaved-changes": "У вас есть несохранённые изменения, вы уверены, что хотите их сбросить?",
    "uploading-cover-picture": "Загрузка изображения в профиле",
    "uploading-profile-picture": "Загрузка аватара",
    "your-biography": "Обо мне"
  },
  "Recommended": {
    "for-fun": "Ради Веселья",
    "serious-stuff": "Серьёзные Вещи",
    "to-help-build": "Помочь с разработкой Trust Café",
    "technology": "Технологии"
  },
  "RevisionList": {
    "by": "by",
    "confirm-revert": "Вы уверены, что хотите откатить до этой редакции?",
    "revert-to": "Откатить до",
    "revision": "редакция",
    "revisions": "редакции",
    "there-are": "Здесь",
    "there-is": "Здесь"
  },
  "Roadmap": {
    "statuses": {
      "awaiting": "Awaiting",
      "complete": "Complete",
      "in-progress": "In Progress",
      "ongoing": "Ongoing",
      "paused": "Paused",
      "testing": "Testing"
    },
    "timeline": [
      {
        "desc": "The first step to Jimmy's new vision is allowing users to rate each other.",
        "goal": "Trust Rating"
      },
      {
        "desc": "Typically used as part of blocking/account deletion",
        "goal": "Mass archiving of a user's stuff"
      },
      {
        "desc": "So we can all discuss how it's being used",
        "goal": "Let everyone see who trusts someone and how much"
      },
      {
        "desc": "Allow users to express displeasure with someone",
        "goal": "Change trust rating bar so it is -20% to +100%"
      },
      {
        "desc": "So we can all discuss how it's being user",
        "goal": "Let everyone see who is trusted by a user"
      },
      {
        "desc": "Simple table or tables to show the top users",
        "goal": "Let everyone see who is highly ranked on the site"
      },
      {
        "desc": "Implement first extremely basic algorithm to sort discover tab by time AND quality",
        "goal": "Trust Mechanism: Cause and effect"
      },
      {
        "desc": "So interesting new users (based on trust) we identify can get big followings quickly",
        "goal": "People suggestions in Onboarding"
      },
      {
        "desc": "",
        "goal": "Nuke a post and all comments entirely"
      },
      {
        "desc": "So we can look into it",
        "goal": "See who people are following and who follows them"
      },
      {
        "desc": "Bell notify me when someone comments on my post or my comment or edits those",
        "goal": "Bell Comment notifications"
      },
      {
        "desc": "Remove bell notificaiton when someone I follow posts",
        "goal": "Declutter notification"
      },
      {
        "desc": "Email notifications",
        "goal": "Have email notifications"
      },
      {
        "desc": "The standard sort of emails but tells them what they need to do for promotion",
        "goal": "24 and 72 hour new user emails"
      },
      {
        "desc": "Deleting and merging subwikis are tools we will need",
        "goal": "Subwiki Moderation"
      },
      {
        "desc": "A place for people to discuss and debate any issues with the content",
        "goal": "Moderation Center"
      },
      {
        "desc": "To help people get stuck in we will need this helpful guide",
        "goal": "Beginners Guide"
      },
      {
        "desc": "This will be an exciting day but there are some things we need to do first.",
        "goal": "Open source WTS2"
      },
      {
        "desc": "A feature we have on WTS1 which will help spread the word",
        "goal": "'Follow me' links"
      },
      {
        "desc": "One of the most requested features",
        "goal": "Ability to follow a post"
      },
      {
        "desc": "Before we can transition to WTS2 this will need doing",
        "goal": "Newsletter Preferences"
      },
      {
        "desc": "A staple feature from WTS1 that is still missing from WTS2",
        "goal": "Pinned posts"
      },
      {
        "desc": "A staple feature from WTS1 that is still missing from WTS2",
        "goal": "Re-posting"
      },
      {
        "desc": "A staple feature from WTS1 that is still missing from WTS2",
        "goal": "User to user blocking"
      },
      {
        "desc": "A staple feature from WTS1 that is still missing from WTS2",
        "goal": "Ability to disable collaborative editing"
      },
      {
        "desc": "At this point we can switch over to WTS2 permanently",
        "goal": "Launch MVP"
      },
      {
        "desc": "ie- Showing times in your timezone and local format",
        "goal": "Regional personalisations"
      },
      {
        "desc": "We have been wanting to view posts in various languages for a long time now",
        "goal": "Post/comment/recent changes translation"
      },
      {
        "desc": "The search algorithm for WTS1 is awful and we want to make sure its replacement is actually usable",
        "goal": "Searching"
      },
      {
        "desc": "Posting videos to social media websites is commonplace and should be something we support",
        "goal": "Video uploads"
      },
      {
        "desc": "With this we will be able to start work on a mobile app or allow others to have a go.",
        "goal": "OAuth Authorization Code Flow with PKCE"
      }
    ],
    "title": "Roadmap of Features"
  },
  "SelfPromotionPolicy": {
    "details": [
      {
        "paragraph": "Commercial posting is frowned upon, but not outright banned. The occasional post to a product or service from an account <i>which is also contributing to the wider community</i>, although not necessarily welcome, is generally not grounds for community sanctions.",
        "title": "Commercial posting:"
      },
      {
        "paragraph": "If you have your own commercial/corporate blog, product, service, or brand that you wish to promote, please keep this on your personal branch. If you think there is wider interest, you can <a href=\"https://www.trustcafe.io/en/wt/request-a-branch\">request a branch</a> be made specifically for that content.<br/><br/>Please keep all posts, except those informing people of your existence, within these spaces.",
        "title": "Brand posting:"
      },
      {
        "paragraph": "We absolutely love to see people's personal (non-commercial) projects. So long as your posts aren't overwhelming people's feeds, and you are otherwise engaging with the community, we have no problem. If you would like to make 50 posts in a row about your cosplay journey (for example), we simply ask that you keep 47-48 of them to your personal branch.",
        "title": "Personal projects:"
      },
      {
        "paragraph": "Much like personal projects, we love to see and support members of our community in their professional endeavors. However, it remains important for us to see that you are otherwise engaging with the community. As above, if you would like to make 50 posts in a row about how you're building your new store (for example), we simply ask that you keep 47-48 of them to your personal branch.",
        "title": "Professional projects"
      },
      {
        "paragraph": "We consider posting spam to be separate from this discussion. 'SEO Experts' who are looking to post about (for example) 'Buying Windows In Melbourne!' will be banned."
      },
      {
        "paragraph": "Do not, under any circumstance, go to multiple user's branches and promote your products/services/brand there. This will result in an immediate ban."
      }
    ],
    "disclaimer": "<i>Как всегда, это рабочая политика и не высечена в камне. Пожалуйста, не стесняйтесь <a href='ru/wt/trustcafe-feedback'>открыть обсуждение</a> о том, как, по вашему мнению, это можно улучшить.<br/><br/>Trust Café имеет менее предписывающий набор политик, чем многие другие платформы социальных медиа. Это не потому, что мы менее привержены предоставлению безопасной и приятной среды для наших пользователей, а потому что наша модерация осуществляется сообществом, и мы доверяем их способности обсуждать и решать пограничные случаи. Сказав это...</i>",
    "note": "Если вы видите спам, пожалуйста, дайте пользователю отрицательный голос и низкий уровень доверия. Вы также можете уведомить администратора, добавив комментарий с хэштегом #spam",
    "title": "Политика Самопродвижения",
    "tldr": "<b>TL;DR Создание сообщества и взаимодействие - это здорово. Продвижение продуктов - нет. Пожалуйста, <a href=\"mailto:info@wikitribune.com\">напишите нам</a> для получения дополнительной информации.</b>"
  },
  "Single": "Единоразово",
  "SnackBar": {
    "this-is-a-test": "This is a test",
    "user-archived-and-banned": "User archived and banned",
    "post-moved-to-profile": "Post moved to user's profile",
    "post-moved-to-your-profile": "Post moved to your profile"
  },
  "SocialMedia": {
    "first-line": "Мне нужна ваша помощь.",
    "header": "Dear Supporters",
    "is-translated": "",
    "paragraph-1": "Все проблемы в мире, которые я вознамерился попытаться решить с помощью WikiTribune Social, как всегда серьёзны.  Мы все видим возможность того, что Илон Маск купит Твиттер и превратит его в зону радикальной свободы слова с троллями. Илон Маск и сам известен своим скверным поведением в Твиттере, так что он точно не сделает Твиттер менее токсичным.",
    "paragraph-2": "Он пообещал позволить Дональду Трампу вернуться на платформу во имя “свободы слова”, но давайте проясним, чего он действительно хочет: Трамп половину десятилетия держал Твиттер на первой полосе каждой газеты, и вернуть его обратно очень выгодно, неважно, какой ценой.",
    "paragraph-3": "WikiTribune работает по другой модели.  Это, конечно, странная модель, но зато такая, в которую я верю. Мы не хотим, чтобы наша платформа развивалась за счёт сосредоточенности на том, чтобы иметь как можно больше просмотров, максимально усиливая зависимость и возмущение людей. Мы хотим создать нечто такое, что будет достаточно небезразлично людям, чтобы они добровольно поддерживали это финансово. Это модель “плати, если хочешь”. Я много раз шутил: делать что-то безвозмездно и надеяться на то, что люди будут добровольно это поддерживать, может быть не лучшей бизнес-моделью, но именно так я построил свою карьеру к настоящему моменту!",
    "paragraph-4": "Нет простого способа этого не говорить.  I've chosen not to raise venture capital money because I want to maintain full creative control to build the vision that I have in mind.  Over the past two years, I've been personally the major funder of the project - but it's straining my personal resources.",
    "paragraph-5": "Over the past several months, we've gone back to the codebase and completely re-architected it from scratch pulling from everything that we've learned so far.  We've got a great small community and the new software will have new ways to support and reward people for making quality posts (instead of how all other social networks reward people for making viral addictive fluff).  Finishing this redesign will have a huge impact.  I'm excited about it!",
    "paragraph-6": "But to finish, I need your support.  I have to pay for the development work to finish the new version of the site, and I need to do some PR and marketing to get the word out.  I need to really start pushing this forward as a relaunch. If each of you can afford to give even a little, I think we have a real shot at making something revolutionary and new.  We won't know unless we keep trying.",
    "paragraph-7": "This is our chance to break the back of toxic social media by offering a better alternative. With Musk’s impending Twitter purchase, and the US midterms approaching, time is short to create a space for healthier discourse.",
    "second-header": "Нам ужасно не хватает средств",
    "sign-off": "Джимми Уэйлс"
  },
  "Stripe": {
    "amount": "Сумма",
    "cancel": "Отмена",
    "closed": "Closed",
    "date": "Дата",
    "description": "Описание",
    "download": "Скачать",
    "due": "Due",
    "fetch-invoice-error": "Oops - There was an error fetching your invoice details",
    "fetch-payment-error": "Упс! При загрузке подробностей вашего платежа произошла ошибка.",
    "fetch-subscriptions-error": "Упс! При загрузке ваших подписок произошла ошибка",
    "fetching-invoices": "Fetching invoices",
    "fetching-payments": "Загрузка платежей",
    "fetching-subscriptions": "Загрузка подписок",
    "form-load-error": "There was an error displaying the payment form:",
    "invoice": "Invoice",
    "no-subscriptions": "У вас нет активных подписок.",
    "paid": "Paid",
    "pay-now": "Оплатить сейчас",
    "payment": "Платёж",
    "pending": "Pending",
    "status": "Статус",
    "thank-you": "Оплата прошла успешно. Спасибо вам!"
  },
  "Subwiki": {
    "describe-subwiki": "Describe this subwiki",
    "member": "нет членов | {n} член | {n} члена | {n} членов",
    "post": "нет постов | {n} пост | {n} поста | {n} постов"
  },
  "Branch": {
    "summarise-branch": "Summarise this branch",
    "describe-branch": "Describe this branch",
    "member": "нет членов | {n} член | {n} члена | {n} членов",
    "post": "нет постов | {n} пост | {n} поста | {n} постов",
    "updated": "Atualizou",
    "icon": "Branch Icon",
    "this-branch-already-exists": "This branch already exists"
  },
  "Support": {
    "Elon-6-10-22": {
      "is-translated": "",
      "paragraph-1": "You don't have to pay - but here's why I am asking you to do it!",
      "paragraph-2": "It's only a matter of time before Elon Musk follows through on his threat to reinstate Donald Trump and allow as much abuse and disinformation as legally possible.",
      "paragraph-3": "If you think that's a sad future for the world, please help me by setting up a small monthly or annual donation - and by helping to spread the word.  We need to improve the software and I want to do it without pressure from investors to accept ads and algorithms aimed at addiction."
    },
    "bullet-point-1": "Борьбу против уничтожающей демократию токсичности в социальных медиа.",
    "bullet-point-2": "A thoughtful and collaborative social media platform",
    "bullet-point-3": "A site driven by quality content, not outrage",
    "bullet-point-4": "Thoughtful design, and a step away from dopamine-driven social addiction",
    "list-preface": "Поддерживая нас, вы поддерживаете:",
    "list-suffix": "Thank you for whatever you can spare to help with this effort.\n\nJimmy Wales",
    "no-thank-you": "No thank you",
    "paragraph-1": "Большое спасибо вам за то, что выбрали финансово вложиться в будущее WT.Social. \nSupport from people like you is essential as we strive to improve our service and bring\nabout a healthier internet landscape.",
    "paragraph-2": "With your support, we will be able to invest more in development and launch our new\nwebsite as soon as possible, and spread the word about our platform.",
    "patron-link": "Find out more today",
    "patron-link-preamble": "If you would like to support us at a higher level, you can join us as a Patron."
  },
  "There are no changes to show": "Здесь нет никаких изменений",
  "Time": {
    "ago": "{time} назад",
    "day": "нет дней | {n} день | {n} дня | {n} дней",
    "fetched-in-time-from-place": "Fetched in {time} seconds from {source}",
    "hour": "нет часов | {n} час | {n} часа | {n} часов",
    "minute": "нет минут | {n} минута | {n} минуты | {n} минут",
    "month": "нет месяцев | {n} месяц | {n} месяца | {n} месяцев",
    "second": "нет секунд | {n} секунда | {n} секунды | {n} секунд",
    "year": "нет лет | {n} год | {n} года | {n} лет"
  },
  "Trust": {
    "0": "I don't know this user at all",
    "1": "Hmm",
    "2": "Maybe",
    "3": "Okay",
    "4": "Great!",
    "5": "I would always trust this user!",
    "no-users-have-rated-user": "No users have rated {user}",
    "people-i-trust": "People I trust",
    "people-who-trust-me": "People who trust me",
    "rated-by-this-user": "Rated by this user",
    "ratings-by-this-user": "Ratings by this user",
    "ratings-of-this-user": "Ratings of this user",
    "set-trust-level": "Set your trust level for this user",
    "user-has-not-rated-any-users": "{user} has not rated any users",
    "user-rated-user2-x": "rated {user2} <strong>{trustLevel}%</strong>",
    "user-was-rated-x-by-user2": "was rated <strong>{trustLevel}%</strong> by {user2}",
    "users-rated-by": "Users rated by",
    "users-who-rated": "Users who rated",
    "you": "This is you",
    "you-rated": "You rated this user:"
  },
  "TrustLevels": {
    "intro": "<b>Note: This is a draft document of ideas - we are seeking feedback and clarifying questions!</b><br/><br/>At Trust Café, trusted content is king. A user’s trust level influences how and where their content is visible to others. It also affects how much weight their votes carry, and can confer some additional permissions at higher levels. When a user is promoted (say from Bronze to Silver) their votes will retroactively count for more, thus automatically moving up the people beneath them.<br/><br/>Below is a quick (but not fully comprehensive) overview of each level of trust.",
    "levels": [
      {
        "description": "This is for new users and helps ensure that spammers or other bad actors don’t enter the wider trust ecosystem. After a brief period of time or sufficient constructive contributions, a user will be promoted from this rank.",
        "name": "Newbie/Guest",
        "unlocked": "None",
        "weight": "0"
      },
      {
        "description": "Users have shown they are not malicious actors and have now moved one level up to where they can enter the trust ecosystem.",
        "name": "Citizen",
        "unlocked": "Other users can vote to move you up the trust system",
        "weight": "0"
      },
      {
        "description": "Users have been voted trustworthy by enough members of the community that they are now able to give out trust points. This level is also the default for people who have joined the Trust Café membership club(?).",
        "name": "Bronze",
        "unlocked": "The ability to grant trust points to another user",
        "weight": "1"
      },
      {
        "description": "Users have been active or prominent enough on the website to gain a good level of trust. This is where we would expect the average active community member to be.",
        "name": "Silver",
        "unlocked": "The ability to create subwikis",
        "weight": "2"
      },
      {
        "description": "To reach this level, a user will have had to accrue 180 trust points. Users at gold level will have some markings on their account to delineate them from lower trust levels.",
        "name": "Gold",
        "unlocked": "Community administration tools",
        "weight": "4"
      },
      {
        "description": "A user will have accrued 1620 trust points, which we do not expect anyone to reach for quite some time. This is exclusively for power users or exceptionally trustworthy members of the community.",
        "name": "Platinum",
        "unlocked": "Zoom party (yes, really)",
        "weight": "8"
      },
      {
        "description": "See platinum. Just…moreso",
        "name": "Diamond",
        "unlocked": "The ability to instantly promote accounts to Bronze level",
        "weight": "16"
      },
      {
        "description": "Like platinum just (literally) exponentially moreso.",
        "name": "Double Diamond",
        "unlocked": "The ability to instantly promote accounts to Silver level",
        "weight": "32"
      }
    ],
    "title": "Trust Café Ranking System",
    "unlocked": "Unlocked",
    "vote_weight": "Vote Weight"
  },
  "UserDetails": {
    "apologies": "We are working hard to bring people the ability to update your own name and slug. In the meantime, you can email us at info{@}trustcafe[dot]io and we will be happy to update on your behalf.",
    "edit-my-account-details": "Edit My Account Details",
    "new-email": "New Email Address",
    "new-email-hint": "Enter your new email address",
    "update-account-header": "Update Your Account Details",
    "update-email": "Update Email",
    "update-email-form-button": "Update your email address"
  },
  "Userprofile": {
    "everything": "Everything",
    "my-messages": "My Messages",
    "posts": "Posts"
  },
  "Welcome": {
    "beginners-guide": "Click here for an in-depth Beginner's Guide to WTS",
    "choose-theme": "Choose your theme",
    "click-to-select-pic": "Нажмите, чтобы выбрать изображение в профиле",
    "dive-in": "Dive In",
    "finish": "Finish onboarding",
    "get-you-started": "Thanks for signing up for WikiTribune Social 2.0. Here's a few things to get you started:",
    "profile-picture": "Выберите аватар!",
    "skip-onboarding": "Skip Onboarding",
    "subwikis": "Subwikis to follow:"
  },
  "Languages": {
    "en": "Английский",
    "es": "Испанский",
    "pt": "Португальский",
    "de": "Немецкий",
    "ru": "Русский"
  },
  "LanguagesNative":{
    "en": "English",
    "es": "Español",
    "pt": "Português",
    "de": "Deutsch",
    "ru": "Русский"
  },
  "_COMMENT": "THESE ARE ALL HERE INSTEAD OF IN A SECTION BECAUSE WE NEED TO INTERPRET THE STRINGS IN RECENT CHANGES - RECENT CHANGES DESPERATELY NEEDS REFACTORING BUT UNTIL SUCH A POINT AS WE'VE DONE THAT THESE HAVE TO LIVE OUTSIDE OF A SECTION",
  "_PLEASE_TRANSLATE": {
    "Admin": {
      "admin-stuff": "Admin Stuff",
      "edit-about-page": "You are now editing the about page",
      "get-user-groups": "Get User Groups"
    },
    "Archive": {
      "archive": "Archive",
      "archive-comment": "Archive Comment",
      "archive-post": "Archive Post",
      "are-you-sure-comment": "Are you sure you would like to archive this comment?",
      "are-you-sure-post": "Are you sure you would like to archive this post?",
      "cancel": "Cancel"
    },
    "Auth": {
      "checking-details": "Checking details..."
    },
    "BeginnersGuide": {
      "latest-announcements": "Check here for the latest announcements from the official WTS team.",
      "sections": [
        {
          "items": [
            {
              "text": "Although you can see some similarities in our design, the social aspect of Trust Café is a lot different than what you might be used to. The website is dedicated to sharing trustworthy content and creating substantive discussions. You won’t see a lot of minion memes or other low quality content here.<br/><br/>We also operate on a peer-to-peer moderation system. That means you are empowered to make this a great place for all. If you see spam, misinformation, or hate speech, let people know by using the trust rating system.<br/><br/>Staff can and will step in if necessary, but the community (including community administrators) are the heart of the website.",
              "title": "What makes Trust Café different from Facebook and Twitter?"
            },
            {
              "text": "A good quality Trust Café post should have accurate and up-to-date information, provide sources for any claims made, and be written in a clear, concise, and easy-to-understand manner. Additionally, the post should be respectful of other viewpoints and should not contain any offensive language or content.",
              "title": "What makes a ‘quality post’?"
            },
            {
              "text": "The trust system is a great way for users to rate other users as trustworthy when they post good quality content. It helps create an environment of accountability and encourages people to be more mindful about the content that they are posting. Additionally, it can also help identify untrustworthy people who may be intentionally posting spam or inappropriate material.",
              "title": "Which users are trustworthy?"
            },
            {
              "text": "You can edit your own posts on Trust Café, like on any social media website. Unlike other platforms, users can edit each other’s posts to correct mistakes, reword headlines, and flag misinformation. In this way Trust Café is like a wiki: everyone can help curate quality content.",
              "title": "Editing A Post"
            },
            {
              "text": "If you see a comment that shouldn’t be there, such as hate speech or advertisements, you can hide the post from view for yourself and everyone else. This is one of the ways the community helps keep Trust Café tidy. If a comment is hidden by mistake, it can be unhidden just as easily.<br/><br/>When a user hides or unhides a comment, the change is logged in the Recent Changes list so that everyone can see. In addition to encouraging action on bad actors with hidden comments, this transparency measure also prevents clandestine abuse of the system.",
              "title": "Hiding Comments",
              "under_construction": true
            }
          ],
          "title": "INTRODUCTION"
        },
        {
          "items": [
            {
              "text": "You’ll notice that your home feed has two tabs: ‘Your Feed’ shows you every post from people or subwikis you are following, and ‘For You’ shows you all the latest posts, although as the trust network develops, new accounts and potential spammers will be displayed below trusted community members.",
              "title": "About Your Feed"
            },
            {
              "text": "A ‘space’ is a place to post content about a given topic, like subreddits or Wikipedia Projects. Trust Café has spaces for everything from US Politics to Puzzles from Around The World.<br/><br/><a href='subwikis/alphabetical'>You can browse all Trust Café spaces here.</a>",
              "title": "About Spaces"
            },
            {
              "text": "Trust Café believes in being as transparent as possible. If you click on <a href='recentchanges'>‘Recent Changes’</a> you can see every action taken on the website. This helps keep everyone accountable and is a great way to look into how moderation works on the platform.",
              "title": "About Recent Changes"
            },
            {
              "text": "On the day-to-day level? People like you!<br/><br/>For information about our staff team, please see <a href='About'>the ‘About Us’ page.</a>",
              "title": "Who Runs This Place?"
            }
          ],
          "title": "ABOUT"
        },
        {
          "items": [
            {
              "text": "You can update your language, notification settings, and other account details in <a href='myaccount'>the ‘My Account’ page</a> at any time. If you would like to help translate the site into your language, let us know in <a href='https://discord.gg/ftyB5yzwH5'>the official Trust Café Discord server</a>.",
              "title": "Change Your Settings"
            },
            {
              "text": "You can update your language, notification settings, and other account details in <a href='myaccount'>the ‘My Account’ page</a> at any time. If you would like to help translate the site into your language, let us know in <a href='https://discord.gg/ftyB5yzwH5'>the official Trust Café Discord server</a>.",
              "title": "Talk to Another User"
            },
            {
              "text": "UNDER CONSTRUCTION",
              "title": "Invite Your Friends, Family, and Fans",
              "under_construction": true
            },
            {
              "text": "This should explain both on-platform and off-platform sharing since both are important to growth......... To share a Trust Café post to your followers on other social media sites, use the share button [add image below] to share directly to Facebook or Twitter, or copy the link and paste it into an email or other message.",
              "title": "Share a Post",
              "under_construction": true
            },
            {
              "text": "THIS ISN’T FINISHED - NEED TO ADD THE ABILITY TO SUBSCRIBE TO A POST........When you make a post, you’ll get a bell notification whenever someone edits it, or leaves a comment. You can also turn on email alerts for updates on <a href='myaccount'>the ‘My Account’ page</a>.",
              "title": "Keep Track of Conversations",
              "under_construction": true
            },
            {
              "text": "THIS ISN’T STARTED AND WE NEED A COMMUNITY DISCUSSION ABOUT IT",
              "title": "Use Hashtags",
              "under_construction": true
            }
          ],
          "title": "HOW TO"
        },
        {
          "items": [
            {
              "text": "Posts to Trust Café are collaborative, which allows anyone to edit your post. It sounds scary, but it really isn’t! A transparent ‘revision history’ is on the right hand side, which shows what each person wrote and when they wrote it.<br/><br/>Community members usually reserve editing for minor improvements to posts, or alerting other users when something is wrong. We strongly encourage you to follow these practices.",
              "title": "Collaborative Editing"
            },
            {
              "text": "SAVING UNTIL SUBWIKIS ARE IMPORTED - THEN WE SHOULD COLLABORATE ON THIS. This section will need different links for different languages since the spaces are separate.",
              "title": "Spaces About Trust Café",
              "under_construction": true
            },
            {
              "text": "UNDER CONSTRUCTION: add links to Self Promotion Policy, NSFW Policy, Names and Pseudonyms Policy",
              "title": "Terms of Service",
              "under_construction": true
            }
          ],
          "title": "MORE DETAILS"
        }
      ],
      "visual-guide": "Visual learner? Check out the Visual Guide to WTS here."
    },
    "Errors": {
      "email-confirmation-error": "There was an error confirming your address"
    },
    "FAQS": {
      "is-translated": ""
    },
    "Following": {
      "following-nobody": "You're not following anybody",
      "users-following": "People You Follow"
    },
    "General": {
      "404": "This page was probably assimilated by some pesky Borg and is no longer 'here'",
      "all": "All",
      "all-subwikis": "All Subwikis",
      "are-you-sure-delete-key-pair": "Are you sure you want to delete this key pair?",
      "choose-scopes": "Choose which scopes you want to grant your client",
      "close": "Close",
      "comment-fetch-error": "Whoops! Nothing to fetch comments on!",
      "comment-text": "Comment Text",
      "continue-reading": "Continue reading",
      "create-new-client-credentials-key-pair": "Create new client credentials key pair",
      "created-new-vote": "created new vote",
      "edit-attached-link": "Edit attached link",
      "edit-copy": "Edit Copy",
      "edit-this-post": "Edit this post",
      "loading-user": "Loading User",
      "manage-api-access": "Manage API Access",
      "must-be-online-to-continue": "You must be online to continue",
      "no-user": "NO USER",
      "none": "None",
      "one-off": "One off",
      "oops-looks-like-youve-entered-the-wrong-login": "Oops! Looks like you've entered the wrong login",
      "pages": "Pages",
      "post-text": "Post Text",
      "posts": "Posts",
      "random-box": "Random Box",
      "read-all-posts": "You have read all the posts here!",
      "settings": "Settings",
      "subwikis": "Subwikis",
      "take-note": "Take note of the following details. If you lose them you'll need to create a new secret.",
      "there-is-a-problem-with-your-account": "There is a problem with your account",
      "this-comment-has-been-archived": "This comment has been archived",
      "trust": "Trust",
      "you-have-been-disconnected": "You have been disconnected from the internet",
      "you-have-max-clients": "You have the maximum number of clients",
      "you-have-no-api-clients": "You have no API clients",
      "you-need-to-be-online": "You need to be online to use Wikitribune Social",
      "your-client-ids": "Your Client ID's",
      "your-conection-has-been-restored": "Your connection has been restored",
      "your-new-creds": "Your new API Client credentials"
    },
    "MySubwikis": {
      "browse-subwikis": "Browse Subwikis",
      "my-subwikis": "My Subwikis",
      "not-following-subwikis": "You are not currently following any subwikis."
    },
    "Notifications": {
      "action_article_updated": "updated your post",
      "action_comment_reply": "replied to you",
      "action_profile_post": "posted on your profile",
      "action_rank_up": "You were promoted",
      "action_trust_created": "rated you",
      "notification-preferences": "Notification Preferences",
      "rank-down": "Rank Down",
      "rank-up": "Rank Up",
      "someone-trusts-me": "When someone new trusts me",
      "someone-trusts-me-more": "When someone increases their trust rating of me",
      "trust-created": "New trust",
      "trust-increased": "Trust Increased",
      "when-my-rank-decreases": "When I am demoted a rank",
      "when-my-rank-increases": "When I am promoted a rank",
      "when-someone-posts-to-me-directly": "When someone posts to me directly",
      "when-something-i-have-posted-or-edited-is-edited": "When something I have posted or edited is edited further"
    },
    "Password": {
      "login-now": "Login now",
      "password-reset-sentence-part-1": "Please be sure to follow the full link from your email. If you continue to have issues please",
      "password-reset-sentence-part-3": "resetting your password again",
      "there-was-a-problem-validating-the-reset-token": "There was a problem validating the reset token."
    },
    "Payment": {
      "error-fetching-schedules": "There was an error fetching your payment schedules",
      "fetching-schedules": "Fetching payment schedules",
      "if-you-would-like-to-make-an-account": "If you would like to make an account",
      "payment-created": "Created",
      "payment-form-choose-your-plan": "Choose your plan",
      "payment-provider": "Provider",
      "payment-status": "Status",
      "payment-term": "Term",
      "user-payment-provider": "Provider"
    },
    "Post": {
      "post-actions": "Post Actions"
    },
    "RevisionList": {
      "by": "by"
    },
    "Roadmap": {
      "statuses": {
        "awaiting": "Awaiting",
        "complete": "Complete",
        "in-progress": "In Progress",
        "ongoing": "Ongoing",
        "paused": "Paused",
        "testing": "Testing"
      },
      "timeline": [
        {
          "desc": "The first step to Jimmy's new vision is allowing users to rate each other.",
          "goal": "Trust Rating"
        },
        {
          "desc": "Typically used as part of blocking/account deletion",
          "goal": "Mass archiving of a user's stuff"
        },
        {
          "desc": "So we can all discuss how it's being used",
          "goal": "Let everyone see who trusts someone and how much"
        },
        {
          "desc": "Allow users to express displeasure with someone",
          "goal": "Change trust rating bar so it is -20% to +100%"
        },
        {
          "desc": "So we can all discuss how it's being user",
          "goal": "Let everyone see who is trusted by a user"
        },
        {
          "desc": "Simple table or tables to show the top users",
          "goal": "Let everyone see who is highly ranked on the site"
        },
        {
          "desc": "Implement first extremely basic algorithm to sort discover tab by time AND quality",
          "goal": "Trust Mechanism: Cause and effect"
        },
        {
          "desc": "So interesting new users (based on trust) we identify can get big followings quickly",
          "goal": "People suggestions in Onboarding"
        },
        {
          "desc": "",
          "goal": "Nuke a post and all comments entirely"
        },
        {
          "desc": "So we can look into it",
          "goal": "See who people are following and who follows them"
        },
        {
          "desc": "Bell notify me when someone comments on my post or my comment or edits those",
          "goal": "Bell Comment notifications"
        },
        {
          "desc": "Remove bell notificaiton when someone I follow posts",
          "goal": "Declutter notification"
        },
        {
          "desc": "Email notifications",
          "goal": "Have email notifications"
        },
        {
          "desc": "The standard sort of emails but tells them what they need to do for promotion",
          "goal": "24 and 72 hour new user emails"
        },
        {
          "desc": "Deleting and merging subwikis are tools we will need",
          "goal": "Subwiki Moderation"
        },
        {
          "desc": "A place for people to discuss and debate any issues with the content",
          "goal": "Moderation Center"
        },
        {
          "desc": "To help people get stuck in we will need this helpful guide",
          "goal": "Beginners Guide"
        },
        {
          "desc": "This will be an exciting day but there are some things we need to do first.",
          "goal": "Open source WTS2"
        },
        {
          "desc": "A feature we have on WTS1 which will help spread the word",
          "goal": "'Follow me' links"
        },
        {
          "desc": "One of the most requested features",
          "goal": "Ability to follow a post"
        },
        {
          "desc": "Before we can transition to WTS2 this will need doing",
          "goal": "Newsletter Preferences"
        },
        {
          "desc": "A staple feature from WTS1 that is still missing from WTS2",
          "goal": "Pinned posts"
        },
        {
          "desc": "A staple feature from WTS1 that is still missing from WTS2",
          "goal": "Re-posting"
        },
        {
          "desc": "A staple feature from WTS1 that is still missing from WTS2",
          "goal": "User to user blocking"
        },
        {
          "desc": "A staple feature from WTS1 that is still missing from WTS2",
          "goal": "Ability to disable collaborative editing"
        },
        {
          "desc": "At this point we can switch over to WTS2 permanently",
          "goal": "Launch MVP"
        },
        {
          "desc": "ie- Showing times in your timezone and local format",
          "goal": "Regional personalisations"
        },
        {
          "desc": "We have been wanting to view posts in various languages for a long time now",
          "goal": "Post/comment/recent changes translation"
        },
        {
          "desc": "The search algorithm for WTS1 is awful and we want to make sure its replacement is actually usable",
          "goal": "Searching"
        },
        {
          "desc": "Posting videos to social media websites is commonplace and should be something we support",
          "goal": "Video uploads"
        },
        {
          "desc": "With this we will be able to start work on a mobile app or allow others to have a go.",
          "goal": "OAuth Authorization Code Flow with PKCE"
        }
      ],
      "title": "Roadmap of Features"
    },
    "SocialMedia": {
      "header": "Dear Supporters",
      "is-translated": "",
      "paragraph-5": "Over the past several months, we've gone back to the codebase and completely re-architected it from scratch pulling from everything that we've learned so far.  We've got a great small community and the new software will have new ways to support and reward people for making quality posts (instead of how all other social networks reward people for making viral addictive fluff).  Finishing this redesign will have a huge impact.  I'm excited about it!",
      "paragraph-6": "But to finish, I need your support.  I have to pay for the development work to finish the new version of the site, and I need to do some PR and marketing to get the word out.  I need to really start pushing this forward as a relaunch. If each of you can afford to give even a little, I think we have a real shot at making something revolutionary and new.  We won't know unless we keep trying."
    },
    "Stripe": {
      "closed": "Closed",
      "due": "Due",
      "fetch-invoice-error": "Oops - There was an error fetching your invoice details",
      "fetching-invoices": "Fetching invoices",
      "form-load-error": "There was an error displaying the payment form:",
      "invoice": "Invoice",
      "paid": "Paid",
      "pending": "Pending"
    },
    "Subwiki": {
      "describe-subwiki": "Describe this subwiki"
    },
    "Support": {
      "Elon-6-10-22": {
        "is-translated": "",
        "paragraph-1": "You don't have to pay - but here's why I am asking you to do it!",
        "paragraph-2": "It's only a matter of time before Elon Musk follows through on his threat to reinstate Donald Trump and allow as much abuse and disinformation as legally possible.",
        "paragraph-3": "If you think that's a sad future for the world, please help me by setting up a small monthly or annual donation - and by helping to spread the word.  We need to improve the software and I want to do it without pressure from investors to accept ads and algorithms aimed at addiction."
      },
      "bullet-point-2": "A thoughtful and collaborative social media platform",
      "bullet-point-3": "A site driven by quality content, not outrage",
      "bullet-point-4": "Thoughtful design, and a step away from dopamine-driven social addiction",
      "list-suffix": "Thank you for whatever you can spare to help with this effort.\n\nJimmy Wales",
      "no-thank-you": "No thank you",
      "paragraph-2": "With your support, we will be able to invest more in development and launch our new\nwebsite as soon as possible, and spread the word about our platform.",
      "patron-link": "Find out more today",
      "patron-link-preamble": "If you would like to support us at a higher level, you can join us as a Patron."
    },
    "Time": {
      "fetched-in-time-from-place": "Fetched in {time} seconds from {source}"
    },
    "Trust": {
      "0": "I don't know this user at all",
      "1": "Hmm",
      "2": "Maybe",
      "3": "Okay",
      "4": "Great!",
      "5": "I would always trust this user!",
      "no-users-have-rated-user": "No users have rated {user}",
      "people-i-trust": "People I trust",
      "people-who-trust-me": "People who trust me",
      "rated-by-this-user": "Rated by this user",
      "ratings-of-this-user": "Ratings of this user",
      "set-trust-level": "Set your trust level for this user",
      "user-has-not-rated-any-users": "{user} has not rated any users",
      "user-rated-user2-x": "rated {user2} <strong>{trustLevel}%</strong>",
      "user-was-rated-x-by-user2": "was rated <strong>{trustLevel}%</strong> by {user2}",
      "users-rated-by": "Users rated by",
      "users-who-rated": "Users who rated",
      "you": "This is you",
      "you-rated": "You rated this user:"
    },
    "TrustLevels": {
      "intro": "<b>Note: This is a draft document of ideas - we are seeking feedback and clarifying questions!</b><br/><br/>At Trust Café, trusted content is king. A user’s trust level influences how and where their content is visible to others. It also affects how much weight their votes carry, and can confer some additional permissions at higher levels. When a user is promoted (say from Bronze to Silver) their votes will retroactively count for more, thus automatically moving up the people beneath them.<br/><br/>Below is a quick (but not fully comprehensive) overview of each level of trust.",
      "levels": [
        {
          "description": "This is for new users and helps ensure that spammers or other bad actors don’t enter the wider trust ecosystem. After a brief period of time or sufficient constructive contributions, a user will be promoted from this rank.",
          "name": "Newbie/Guest",
          "unlocked": "None",
          "weight": "0"
        },
        {
          "description": "Users have shown they are not malicious actors and have now moved one level up to where they can enter the trust ecosystem.",
          "name": "Citizen",
          "unlocked": "Other users can vote to move you up the trust system",
          "weight": "0"
        },
        {
          "description": "Users have been voted trustworthy by enough members of the community that they are now able to give out trust points. This level is also the default for people who have joined the Trust Café membership club(?).",
          "name": "Bronze",
          "unlocked": "The ability to grant trust points to another user",
          "weight": "1"
        },
        {
          "description": "Users have been active or prominent enough on the website to gain a good level of trust. This is where we would expect the average active community member to be.",
          "name": "Silver",
          "unlocked": "The ability to create subwikis",
          "weight": "2"
        },
        {
          "description": "To reach this level, a user will have had to accrue 180 trust points. Users at gold level will have some markings on their account to delineate them from lower trust levels.",
          "name": "Gold",
          "unlocked": "Community administration tools",
          "weight": "4"
        },
        {
          "description": "A user will have accrued 1620 trust points, which we do not expect anyone to reach for quite some time. This is exclusively for power users or exceptionally trustworthy members of the community.",
          "name": "Platinum",
          "unlocked": "Zoom party (yes, really)",
          "weight": "8"
        },
        {
          "description": "See platinum. Just…moreso",
          "name": "Diamond",
          "unlocked": "The ability to instantly promote accounts to Bronze level",
          "weight": "16"
        },
        {
          "description": "Like platinum just (literally) exponentially moreso.",
          "name": "Double Diamond",
          "unlocked": "The ability to instantly promote accounts to Silver level",
          "weight": "32"
        },
        {
          "description": "Jimmy. It’s just Jimmy.",
          "name": "Grand Poobah",
          "unlocked": "The ability to be Jimmy. If you unlock this, I think it officially qualifies as identity theft.",
          "weight": "64"
        }
      ],
      "title": "Trust Café Ranking System",
      "unlocked": "Unlocked",
      "vote_weight": "Vote Weight"
    },
    "Userprofile": {
      "contributions": "Contributions",
      "posts": "Posts"
    },
    "Welcome": {
      "beginners-guide": "Click here for an in-depth Beginner's Guide to WTS",
      "choose-theme": "Choose your theme",
      "dive-in": "Dive In",
      "finish": "Finish onboarding",
      "get-you-started": "Thanks for signing up for WikiTribune Social 2.0. Here's a few things to get you started:",
      "skip-onboarding": "Skip Onboarding",
      "subwikis": "Subwikis to follow:",
      "support-trust-cafe": "Apoya Trust Café"
    },
    "archived a post": "archived a post",
    "commentCount": "Number of comments",
    "created new vote": "created new vote",
    "postCount": "Number of posts",
    "profileAge": "Profile age",
    "subwikiCount": "Subwikis created",
    "totalActions": "Total actions",
    "totalFollowers": "Total Followers",
    "totalProfilePosts": "Total Profile Posts"
  },
  "archived a post": "archived a post",
  "commentCount": "Number of comments",
  "created new comment": "оставил(а) новый комментарий",
  "created new post": "создал(а) новый пост",
  "created new subwiki": "создал(а) новую сабвики",
  "created new userprofile": "создал(а) новый профиль пользователя",
  "created new vote": "created new vote",
  "language": "Русский",
  "postCount": "Number of posts",
  "profileAge": "Profile age",
  "subwikiCount": "Subwikis created",
  "testing": "Тестирую",
  "totalActions": "Total actions",
  "totalFollowers": "Total Followers",
  "totalProfilePosts": "Total Profile Posts",
  "updated a comment": "обновил(а) комментарий",
  "updated a post": "обновил(а) пост",
  "updated a subwiki": "обновил(а) сабвики",
  "updated a userprofile": "обновил(а) профиль пользователя"
}